<?xml version="1.0" encoding="UTF-8"?>
<svg width="252pt" version="1.1" xmlns="http://www.w3.org/2000/svg" height="144pt" viewBox="0 0 252 144" xmlns:xlink="http://www.w3.org/1999/xlink">
 <title>Business Card 1</title>
 <defs>
  <clipPath id="Clip0">
   <path d="M0 0 L83.615 0 L83.615 10.824 L0 10.824 L0 0 Z" transform="translate(132.502, 94.944)"/>
  </clipPath>
  <clipPath id="Clip1">
   <path d="M0 0 L83.615 0 L83.615 10.822 L0 10.822 L0 0 Z" transform="translate(132.502, 41.933)"/>
  </clipPath>
  <path id="GlBitstreamVeraSans-Bold49" d="M1.17188 8.70109 L2.83203 8.70109 L2.83203 3.98922 L1.12797 4.34078 L1.12797 3.06156 L2.82234 2.71 L4.60938 2.71 L4.60938 8.70109 L6.26953 8.70109 L6.26953 10 L1.17188 10 L1.17188 8.70109 Z"/>
  <path id="GlBitstreamVeraSans-Bold57" d="M1.00094 9.83891 L1.00094 8.49125 C1.00094 8.49125 1.45016 8.70109 1.86031 8.80609 C1.86031 8.80609 2.27047 8.91109 2.67094 8.91109 C2.67094 8.91109 3.51078 8.91109 3.97953 8.44484 C3.97953 8.44484 4.44828 7.97844 4.53125 7.06047 C4.53125 7.06047 4.19922 7.30469 3.82328 7.42672 C3.82328 7.42672 3.44734 7.54875 3.00781 7.54875 C3.00781 7.54875 1.88969 7.54875 1.20359 6.89703 C1.20359 6.89703 0.517656 6.24516 0.517656 5.18063 C0.517656 5.18063 0.517656 4.00391 1.28172 3.29594 C1.28172 3.29594 2.04594 2.58781 3.33016 2.58781 C3.33016 2.58781 4.75594 2.58781 5.53719 3.54984 C5.53719 3.54984 6.31844 4.51172 6.31844 6.26953 C6.31844 6.26953 6.31844 8.07609 5.40531 9.10891 C5.40531 9.10891 4.49219 10.1416 2.90047 10.1416 C2.90047 10.1416 2.38766 10.1416 1.91891 10.0658 C1.91891 10.0658 1.45016 9.99016 1.00094 9.83891 L1.00094 9.83891 Z M3.32031 6.32812 C3.32031 6.32812 3.81344 6.32812 4.0625 6.00828 C4.0625 6.00828 4.31156 5.68844 4.31156 5.04875 C4.31156 5.04875 4.31156 4.41406 4.0625 4.09187 C4.0625 4.09187 3.81344 3.76953 3.32031 3.76953 C3.32031 3.76953 2.82719 3.76953 2.57812 4.09187 C2.57812 4.09187 2.32906 4.41406 2.32906 5.04875 C2.32906 5.04875 2.32906 5.68844 2.57812 6.00828 C2.57812 6.00828 2.82719 6.32812 3.32031 6.32812 Z"/>
  <path id="GlBitstreamVeraSans-Bold50" d="M2.88094 8.61812 L6.08891 8.61812 L6.08891 10 L0.791094 10 L0.791094 8.61812 L3.45219 6.26953 C3.45219 6.26953 3.80859 5.94719 3.97953 5.63969 C3.97953 5.63969 4.15047 5.33203 4.15047 5 C4.15047 5 4.15047 4.48734 3.80609 4.17484 C3.80609 4.17484 3.46188 3.86234 2.89062 3.86234 C2.89062 3.86234 2.45125 3.86234 1.92875 4.05031 C1.92875 4.05031 1.40625 4.23828 0.810625 4.60938 L0.810625 3.00781 C0.810625 3.00781 1.44531 2.79781 2.06547 2.68797 C2.06547 2.68797 2.68562 2.57812 3.28125 2.57812 C3.28125 2.57812 4.58984 2.57812 5.31484 3.15437 C5.31484 3.15437 6.04 3.73047 6.04 4.76078 C6.04 4.76078 6.04 5.35641 5.73234 5.87156 C5.73234 5.87156 5.42484 6.38672 4.43844 7.25094 L2.88094 8.61812 Z"/>
  <path id="GlBitstreamVeraSans-Bold46" d="M1.02047 8.11031 L2.77828 8.11031 L2.77828 10 L1.02047 10 L1.02047 8.11031 Z"/>
  <path id="GlBitstreamVeraSans-Bold54" d="M3.61813 6.40141 C3.61813 6.40141 3.125 6.40141 2.87844 6.72125 C2.87844 6.72125 2.63187 7.04094 2.63187 7.68063 C2.63187 7.68063 2.63187 8.32031 2.87844 8.64016 C2.87844 8.64016 3.125 8.96 3.61813 8.96 C3.61813 8.96 4.11625 8.96 4.36281 8.64016 C4.36281 8.64016 4.60938 8.32031 4.60938 7.68063 C4.60938 7.68063 4.60938 7.04094 4.36281 6.72125 C4.36281 6.72125 4.11625 6.40141 3.61813 6.40141 L3.61813 6.40141 Z M5.94234 2.90031 L5.94234 4.24797 C5.94234 4.24797 5.47859 4.02828 5.06844 3.92328 C5.06844 3.92328 4.65828 3.81828 4.26766 3.81828 C4.26766 3.81828 3.42781 3.81828 2.95906 4.28469 C2.95906 4.28469 2.49031 4.75094 2.41219 5.66891 C2.41219 5.66891 2.73438 5.42969 3.11031 5.31016 C3.11031 5.31016 3.48641 5.19047 3.93063 5.19047 C3.93063 5.19047 5.04891 5.19047 5.73484 5.84484 C5.73484 5.84484 6.42094 6.49906 6.42094 7.55859 C6.42094 7.55859 6.42094 8.73047 5.65422 9.43609 C5.65422 9.43609 4.88766 10.1416 3.59859 10.1416 C3.59859 10.1416 2.17781 10.1416 1.39891 9.18219 C1.39891 9.18219 0.620156 8.22266 0.620156 6.46 C0.620156 6.46 0.620156 4.65328 1.53078 3.62062 C1.53078 3.62062 2.44141 2.58781 4.02828 2.58781 C4.02828 2.58781 4.53125 2.58781 5.00484 2.66594 C5.00484 2.66594 5.47859 2.74406 5.94234 2.90031 Z"/>
  <path id="GlBitstreamVeraSans-Bold56" d="M3.48141 6.73828 C3.48141 6.73828 2.95406 6.73828 2.67078 7.02641 C2.67078 7.02641 2.38766 7.31438 2.38766 7.85156 C2.38766 7.85156 2.38766 8.38859 2.67078 8.67437 C2.67078 8.67437 2.95406 8.96 3.48141 8.96 C3.48141 8.96 4.00391 8.96 4.28219 8.67437 C4.28219 8.67437 4.56062 8.38859 4.56062 7.85156 C4.56062 7.85156 4.56062 7.30953 4.28219 7.02391 C4.28219 7.02391 4.00391 6.73828 3.48141 6.73828 L3.48141 6.73828 Z M2.10938 6.11813 C2.10938 6.11813 1.44531 5.91797 1.10844 5.50297 C1.10844 5.50297 0.771563 5.08781 0.771563 4.46781 C0.771563 4.46781 0.771563 3.54484 1.46 3.06156 C1.46 3.06156 2.14844 2.57812 3.48141 2.57812 C3.48141 2.57812 4.80469 2.57812 5.49313 3.05906 C5.49313 3.05906 6.18172 3.54 6.18172 4.46781 C6.18172 4.46781 6.18172 5.08781 5.84234 5.50297 C5.84234 5.50297 5.50297 5.91797 4.83891 6.11813 C4.83891 6.11813 5.58109 6.32328 5.95953 6.78469 C5.95953 6.78469 6.33797 7.24609 6.33797 7.94922 C6.33797 7.94922 6.33797 9.03313 5.61766 9.58734 C5.61766 9.58734 4.8975 10.1416 3.48141 10.1416 C3.48141 10.1416 2.06062 10.1416 1.33547 9.58734 C1.33547 9.58734 0.610313 9.03313 0.610313 7.94922 C0.610313 7.94922 0.610313 7.24609 0.98875 6.78469 C0.98875 6.78469 1.36719 6.32328 2.10938 6.11813 L2.10938 6.11813 Z M2.54891 4.65813 C2.54891 4.65813 2.54891 5.09281 2.79047 5.32719 C2.79047 5.32719 3.03219 5.56156 3.48141 5.56156 C3.48141 5.56156 3.92094 5.56156 4.16016 5.32719 C4.16016 5.32719 4.39938 5.09281 4.39938 4.65813 C4.39938 4.65813 4.39938 4.22359 4.16016 3.99172 C4.16016 3.99172 3.92094 3.75969 3.48141 3.75969 C3.48141 3.75969 3.03219 3.75969 2.79047 3.99406 C2.79047 3.99406 2.54891 4.22844 2.54891 4.65813 Z"/>
  <path id="GlBitstreamVeraSans-Bold53" d="M1.05953 2.71 L5.7325 2.71 L5.7325 4.09172 L2.55859 4.09172 L2.55859 5.21969 C2.55859 5.21969 2.77344 5.16109 2.99063 5.12937 C2.99063 5.12937 3.20797 5.09766 3.44234 5.09766 C3.44234 5.09766 4.77547 5.09766 5.51766 5.76422 C5.51766 5.76422 6.25984 6.43063 6.25984 7.62203 C6.25984 7.62203 6.25984 8.80375 5.45172 9.47266 C5.45172 9.47266 4.64359 10.1416 3.20797 10.1416 C3.20797 10.1416 2.58797 10.1416 1.98 10.0219 C1.98 10.0219 1.37203 9.90234 0.771563 9.65813 L0.771563 8.17875 C0.771563 8.17875 1.36719 8.52047 1.90187 8.69141 C1.90187 8.69141 2.43656 8.86234 2.91016 8.86234 C2.91016 8.86234 3.59375 8.86234 3.98672 8.52781 C3.98672 8.52781 4.37984 8.19328 4.37984 7.62203 C4.37984 7.62203 4.37984 7.04594 3.98672 6.71391 C3.98672 6.71391 3.59375 6.38187 2.91016 6.38187 C2.91016 6.38187 2.50484 6.38187 2.04578 6.48687 C2.04578 6.48687 1.58688 6.59172 1.05953 6.81156 L1.05953 2.71 Z"/>
  <path id="GlBitstreamVeraSans-Bold48" d="M4.59969 6.34766 C4.59969 6.34766 4.59969 4.98047 4.34328 4.42141 C4.34328 4.42141 4.08688 3.86234 3.48141 3.86234 C3.48141 3.86234 2.87594 3.86234 2.61719 4.42141 C2.61719 4.42141 2.35844 4.98047 2.35844 6.34766 C2.35844 6.34766 2.35844 7.72953 2.61719 8.29594 C2.61719 8.29594 2.87594 8.86234 3.48141 8.86234 C3.48141 8.86234 4.08203 8.86234 4.34078 8.29594 C4.34078 8.29594 4.59969 7.72953 4.59969 6.34766 L4.59969 6.34766 Z M6.47953 6.36234 C6.47953 6.36234 6.47953 8.17375 5.69828 9.15766 C5.69828 9.15766 4.91703 10.1416 3.48141 10.1416 C3.48141 10.1416 2.04109 10.1416 1.25984 9.15766 C1.25984 9.15766 0.478594 8.17375 0.478594 6.36234 C0.478594 6.36234 0.478594 4.54594 1.25984 3.56203 C1.25984 3.56203 2.04109 2.57812 3.48141 2.57812 C3.48141 2.57812 4.91703 2.57812 5.69828 3.56203 C5.69828 3.56203 6.47953 4.54594 6.47953 6.36234 Z"/>
  <path id="GlBitstreamVeraSans-Roman114" d="M4.11141 5.37109 C4.11141 5.37109 3.96 5.28313 3.78172 5.24172 C3.78172 5.24172 3.60359 5.20016 3.38875 5.20016 C3.38875 5.20016 2.62703 5.20016 2.21922 5.69578 C2.21922 5.69578 1.81156 6.19141 1.81156 7.11906 L1.81156 10 L0.908281 10 L0.908281 4.53125 L1.81156 4.53125 L1.81156 5.38078 C1.81156 5.38078 2.09469 4.88281 2.54875 4.64109 C2.54875 4.64109 3.00297 4.39938 3.65234 4.39938 C3.65234 4.39938 3.74516 4.39938 3.85734 4.41156 C3.85734 4.41156 3.96969 4.42375 4.10641 4.44828 L4.11141 5.37109 Z"/>
  <path id="GlBitstreamVeraSans-Roman101" d="M5.62016 7.04094 L5.62016 7.48047 L1.48922 7.48047 C1.48922 7.48047 1.54781 8.40813 2.04828 8.89406 C2.04828 8.89406 2.54891 9.37984 3.44234 9.37984 C3.44234 9.37984 3.96 9.37984 4.44578 9.25297 C4.44578 9.25297 4.93172 9.12594 5.41016 8.87203 L5.41016 9.72172 C5.41016 9.72172 4.92672 9.92672 4.41891 10.0341 C4.41891 10.0341 3.91109 10.1416 3.38875 10.1416 C3.38875 10.1416 2.08016 10.1416 1.31594 9.37984 C1.31594 9.37984 0.551719 8.61812 0.551719 7.31937 C0.551719 7.31937 0.551719 5.97656 1.27687 5.18797 C1.27687 5.18797 2.00203 4.39938 3.2325 4.39938 C3.2325 4.39938 4.33594 4.39938 4.97797 5.10984 C4.97797 5.10984 5.62016 5.82031 5.62016 7.04094 L5.62016 7.04094 Z M4.72172 6.77734 C4.72172 6.77734 4.71188 6.04 4.30906 5.60062 C4.30906 5.60062 3.90625 5.16109 3.24219 5.16109 C3.24219 5.16109 2.49031 5.16109 2.03859 5.58594 C2.03859 5.58594 1.58688 6.01078 1.51859 6.78219 L4.72172 6.77734 Z"/>
  <path id="GlBitstreamVeraSans-Roman108" d="M0.942344 2.40234 L1.84078 2.40234 L1.84078 10 L0.942344 10 L0.942344 2.40234 Z"/>
  <path id="GlBitstreamVeraSans-Roman97" d="M3.42781 7.25094 C3.42781 7.25094 2.33891 7.25094 1.91891 7.5 C1.91891 7.5 1.49906 7.74906 1.49906 8.34953 C1.49906 8.34953 1.49906 8.82812 1.81391 9.10891 C1.81391 9.10891 2.12891 9.38969 2.67094 9.38969 C2.67094 9.38969 3.41797 9.38969 3.86953 8.85984 C3.86953 8.85984 4.32125 8.33 4.32125 7.45109 L4.32125 7.25094 L3.42781 7.25094 L3.42781 7.25094 Z M5.21969 6.87984 L5.21969 10 L4.32125 10 L4.32125 9.16984 C4.32125 9.16984 4.01375 9.66797 3.55469 9.90484 C3.55469 9.90484 3.09578 10.1416 2.43172 10.1416 C2.43172 10.1416 1.59187 10.1416 1.09625 9.67047 C1.09625 9.67047 0.600625 9.19922 0.600625 8.40813 C0.600625 8.40813 0.600625 7.48531 1.21828 7.01656 C1.21828 7.01656 1.83594 6.54781 3.06156 6.54781 L4.32125 6.54781 L4.32125 6.46 C4.32125 6.46 4.32125 5.83984 3.91359 5.50047 C3.91359 5.50047 3.50594 5.16109 2.76859 5.16109 C2.76859 5.16109 2.29984 5.16109 1.85547 5.27344 C1.85547 5.27344 1.41109 5.38578 1.00094 5.61031 L1.00094 4.78031 C1.00094 4.78031 1.49422 4.58984 1.95797 4.49469 C1.95797 4.49469 2.42188 4.39938 2.86141 4.39938 C2.86141 4.39938 4.04781 4.39938 4.63375 5.01469 C4.63375 5.01469 5.21969 5.62984 5.21969 6.87984 Z"/>
  <path id="GlBitstreamVeraSans-Roman110" d="M5.48828 6.69922 L5.48828 10 L4.58984 10 L4.58984 6.72844 C4.58984 6.72844 4.58984 5.95219 4.28703 5.56641 C4.28703 5.56641 3.98438 5.18063 3.37891 5.18063 C3.37891 5.18063 2.65141 5.18063 2.23141 5.64453 C2.23141 5.64453 1.81156 6.10844 1.81156 6.90922 L1.81156 10 L0.908281 10 L0.908281 4.53125 L1.81156 4.53125 L1.81156 5.38078 C1.81156 5.38078 2.13375 4.88766 2.57078 4.64359 C2.57078 4.64359 3.00781 4.39938 3.57906 4.39938 C3.57906 4.39938 4.52156 4.39938 5.00484 4.98297 C5.00484 4.98297 5.48828 5.56641 5.48828 6.69922 Z"/>
 </defs>
 <g id="Background">
  <path style="fill:#576063; fill-rule:evenodd;stroke:none;" d="M0 0 L252 0 L252 144 L0 144 L0 0 Z" transform="translate(0, 0)"/>
  <path style="fill:none;stroke:#d9d9d9; stroke-width:0.5009; stroke-linecap:butt; stroke-linejoin:miter; stroke-dasharray:none;" d="M0 0 C0 9.109 0 124.728 0 133.839 C9.306 133.839 232.818 133.839 242.123 133.839 C242.123 124.728 242.123 9.109 242.123 1.24345e-14 C232.819 0 9.306 0 0 0 Z" transform="translate(4.938, 5.08)"/>
  <path style="fill:#d9d9d9; fill-rule:nonzero;stroke:none;" d="M28.353 27.807 L21.119 23.358 L23.291 31.736 L18.264 24.776 L17.157 33.373 L15.098 24.963 L10.879 32.469 L12.103 23.889 L5.411 29.162 L9.736 21.719 L1.591 23.957 L8.359 18.784 L0 17.645 L8.178 15.528 L0.88 11.188 L9.22 12.45 L4.094 5.565 L11.329 10.014 L9.152 1.635 L14.184 8.596 L15.291 0 L17.347 8.409 L21.57 0.903 L20.342 9.483 L27.035 4.207 L22.709 11.651 L30.856 9.414 L24.089 14.588 L32.446 15.727 L24.271 17.844 L31.569 22.186 L23.227 20.922 L28.353 27.807 Z" transform="translate(44.705, 44.232)"/>
  <g id="Group2" clip-path="url(#Clip0)">
   <path style="fill:#99a195; fill-rule:nonzero;stroke:none;" d="M10.427 0.243 C16.745 0.35 22.557 2.677 28.496 5.222 C33.252 7.261 36.964 7.601 36.964 7.601 C36.964 7.601 37.699 6.861 37.645 6.052 C37.742 5.349 37.886 4.64 37.68 3.929 C37.396 2.97 36.824 2.097 36.015 1.493 C35.402 1.245 34.855 0.798 34.172 0.741 C32.523 0.485 30.678 1.009 29.661 2.473 C29.635 1.799 30.346 1.264 30.905 0.918 C31.16 0.811 31.382 0.641 31.644 0.541 C33.432 0 35.559 0.428 36.849 1.875 C37.229 2.352 37.63 2.814 37.844 3.402 C38.161 4.752 38.029 6.396 37.468 7.646 C39.126 8.072 40.903 6.91 41.946 5.611 C42.187 5.257 42.45 4.943 42.595 4.517 C42.912 3.63 42.863 2.55 42.283 1.783 C41.951 0.881 40.827 0.974 40.453 0.263 C40.895 0.148 41.191 0.568 41.585 0.667 C42.469 1.179 42.981 2.194 43.084 3.21 C43.229 4.773 42.166 6.093 41.033 6.946 C40.779 7.143 40.481 7.251 40.224 7.442 C39.288 8.065 37.145 8.118 37.145 8.118 C37.145 8.118 35.351 10.249 32.693 10.389 C30.604 10.5 28.501 10.375 26.527 9.692 C25.386 9.26 24.27 8.778 23.108 8.401 C17.84 6.149 11.922 2.477 6.206 5.028 C5.978 5.219 5.729 5.632 5.475 5.546 C5.538 4.929 6.165 4.708 6.586 4.39 C9.7 2.876 13.193 3.779 16.399 4.488 C20.328 5.867 24.001 7.89 27.985 9.105 C30.125 9.828 32.561 10.335 34.632 9.439 C36.042 8.828 36.965 8.048 36.687 8.072 C36.086 8.119 34.068 8.056 33.259 7.826 C28.952 6.603 20.388 3.133 20.154 3.097 C17.131 1.904 13.94 1.074 10.703 0.845 C9.46 0.818 8.217 0.632 6.974 0.958 C6.235 1.122 5.565 1.464 4.895 1.79 C2.479 2.946 1.297 6.548 3.377 8.63 C3.811 8.919 4.19 9.275 4.659 9.523 C6.481 10.425 8.651 10.546 10.501 9.658 C11.22 9.17 12.014 8.736 12.559 8.033 C12.559 8.986 11.082 9.49 10.239 10.056 C9.901 10.169 9.563 10.255 9.224 10.398 C6.981 10.824 4.268 10.257 2.762 8.404 C2.223 7.609 0 2.533 6.891 0.562 C7.246 0.462 9.591 0.095 10.427 0.243 Z" transform="translate(172.888, 94.944)"/>
   <path style="fill:#99a195; fill-rule:nonzero;stroke:none;" d="M32.803 0.243 C26.485 0.35 20.674 2.677 14.734 5.222 C9.978 7.261 6.267 7.601 6.267 7.601 C6.267 7.601 5.531 6.861 5.585 6.052 C5.488 5.349 5.344 4.64 5.551 3.929 C5.834 2.97 6.407 2.097 7.215 1.493 C7.829 1.245 8.374 0.798 9.058 0.741 C10.707 0.485 12.551 1.009 13.567 2.473 C13.595 1.799 12.883 1.264 12.324 0.918 C12.069 0.811 11.847 0.641 11.586 0.541 C9.797 0 7.671 0.428 6.379 1.875 C6 2.352 5.6 2.814 5.385 3.402 C5.068 4.752 5.202 6.396 5.76 7.646 C4.104 8.072 2.326 6.91 1.283 5.611 C1.042 5.257 0.78 4.943 0.636 4.517 C0.317 3.63 0.365 2.55 0.946 1.783 C1.278 0.881 2.404 0.974 2.777 0.263 C2.334 0.148 2.037 0.568 1.644 0.667 C0.759 1.179 0.248 2.194 0.146 3.21 C0 4.773 1.064 6.093 2.197 6.946 C2.452 7.143 2.748 7.251 3.005 7.442 C3.94 8.065 6.082 8.118 6.082 8.118 C6.082 8.118 7.879 10.249 10.537 10.389 C12.627 10.5 14.728 10.375 16.703 9.692 C17.842 9.26 18.961 8.778 20.12 8.401 C25.389 6.149 31.306 2.477 37.023 5.028 C37.252 5.219 37.499 5.632 37.754 5.546 C37.692 4.929 37.064 4.708 36.643 4.39 C33.529 2.876 30.036 3.779 26.83 4.488 C22.903 5.867 19.229 7.89 15.246 9.105 C13.104 9.828 10.669 10.335 8.596 9.439 C7.187 8.828 6.264 8.048 6.543 8.072 C7.141 8.119 9.162 8.056 9.971 7.826 C14.276 6.603 22.84 3.133 23.075 3.097 C26.1 1.904 29.291 1.074 32.529 0.845 C33.771 0.818 35.014 0.632 36.256 0.958 C36.995 1.122 37.666 1.464 38.335 1.79 C40.752 2.946 41.933 6.548 39.854 8.63 C39.419 8.919 39.04 9.275 38.571 9.523 C36.748 10.425 34.581 10.546 32.73 9.658 C32.01 9.17 31.216 8.736 30.671 8.033 C30.671 8.986 32.15 9.49 32.992 10.056 C33.329 10.169 33.667 10.255 34.007 10.398 C36.251 10.824 38.963 10.257 40.469 8.404 C41.008 7.609 43.23 2.533 36.34 0.562 C35.984 0.462 33.638 0.095 32.803 0.243 Z" transform="translate(132.502, 94.944)"/>
  </g>
  <g id="Group3" clip-path="url(#Clip1)">
   <path style="fill:#99a195; fill-rule:nonzero;stroke:none;" d="M10.427 10.579 C16.745 10.474 22.557 8.145 28.496 5.6 C33.252 3.561 36.964 3.223 36.964 3.223 C36.964 3.223 37.699 3.963 37.645 4.77 C37.742 5.473 37.886 6.184 37.68 6.893 C37.396 7.852 36.824 8.725 36.015 9.329 C35.402 9.577 34.855 10.026 34.172 10.083 C32.523 10.337 30.678 9.813 29.661 8.349 C29.635 9.023 30.346 9.558 30.905 9.906 C31.16 10.011 31.382 10.181 31.644 10.283 C33.432 10.822 35.559 10.396 36.849 8.947 C37.229 8.47 37.63 8.008 37.844 7.422 C38.161 6.072 38.029 4.426 37.468 3.176 C39.126 2.75 40.903 3.912 41.946 5.211 C42.187 5.566 42.45 5.879 42.595 6.307 C42.912 7.194 42.863 8.272 42.283 9.039 C41.951 9.941 40.827 9.85 40.453 10.559 C40.895 10.674 41.191 10.254 41.585 10.155 C42.469 9.643 42.981 8.628 43.084 7.612 C43.229 6.049 42.166 4.729 41.033 3.876 C40.779 3.679 40.481 3.573 40.224 3.38 C39.288 2.757 37.145 2.706 37.145 2.706 C37.145 2.706 35.351 0.573 32.693 0.433 C30.604 0.322 28.501 0.447 26.527 1.13 C25.386 1.562 24.27 2.044 23.108 2.421 C17.84 4.673 11.922 8.345 6.206 5.794 C5.978 5.603 5.729 5.192 5.475 5.276 C5.538 5.893 6.165 6.114 6.586 6.434 C9.7 7.946 13.193 7.045 16.399 6.334 C20.328 4.957 24.001 2.932 27.985 1.719 C30.125 0.994 32.561 0.489 34.632 1.383 C36.042 1.994 36.965 2.774 36.687 2.75 C36.086 2.705 34.068 2.766 33.259 2.996 C28.952 4.219 20.388 7.691 20.154 7.725 C17.131 8.92 13.94 9.748 10.703 9.977 C9.46 10.004 8.217 10.19 6.974 9.864 C6.235 9.7 5.565 9.36 4.895 9.034 C2.479 7.876 1.297 4.274 3.377 2.192 C3.811 1.903 4.19 1.547 4.659 1.299 C6.481 0.397 8.651 0.276 10.501 1.164 C11.22 1.652 12.014 2.088 12.559 2.789 C12.559 1.838 11.082 1.332 10.239 0.766 C9.901 0.653 9.563 0.567 9.224 0.424 C6.981 0 4.268 0.565 2.762 2.418 C2.223 3.215 0 8.291 6.891 10.26 C7.246 10.36 9.591 10.727 10.427 10.579 Z" transform="translate(172.888, 41.933)"/>
   <path style="fill:#99a195; fill-rule:nonzero;stroke:none;" d="M32.803 10.579 C26.485 10.474 20.674 8.145 14.734 5.6 C9.978 3.561 6.267 3.223 6.267 3.223 C6.267 3.223 5.531 3.963 5.585 4.77 C5.488 5.473 5.344 6.184 5.551 6.893 C5.834 7.852 6.407 8.725 7.215 9.329 C7.829 9.577 8.374 10.026 9.058 10.083 C10.707 10.337 12.551 9.813 13.567 8.349 C13.595 9.023 12.883 9.558 12.324 9.906 C12.069 10.011 11.847 10.181 11.586 10.283 C9.797 10.822 7.671 10.396 6.379 8.947 C6 8.47 5.6 8.008 5.385 7.422 C5.068 6.072 5.202 4.426 5.76 3.176 C4.104 2.75 2.326 3.912 1.283 5.211 C1.042 5.566 0.78 5.879 0.636 6.307 C0.317 7.194 0.365 8.272 0.946 9.039 C1.278 9.941 2.404 9.85 2.777 10.559 C2.334 10.674 2.037 10.254 1.644 10.155 C0.759 9.643 0.248 8.628 0.146 7.612 C0 6.049 1.064 4.729 2.197 3.876 C2.452 3.679 2.748 3.573 3.005 3.38 C3.94 2.757 6.082 2.706 6.082 2.706 C6.082 2.706 7.879 0.573 10.537 0.433 C12.627 0.322 14.728 0.447 16.703 1.13 C17.842 1.562 18.961 2.044 20.12 2.421 C25.389 4.673 31.306 8.345 37.023 5.794 C37.252 5.603 37.499 5.192 37.754 5.276 C37.692 5.893 37.064 6.114 36.643 6.434 C33.529 7.946 30.036 7.045 26.83 6.334 C22.903 4.957 19.229 2.932 15.246 1.719 C13.104 0.994 10.669 0.489 8.596 1.383 C7.187 1.994 6.264 2.774 6.543 2.75 C7.141 2.705 9.162 2.766 9.971 2.996 C14.276 4.219 22.84 7.691 23.075 7.725 C26.1 8.92 29.291 9.748 32.529 9.977 C33.771 10.004 35.014 10.19 36.256 9.864 C36.995 9.7 37.666 9.36 38.335 9.034 C40.752 7.876 41.933 4.274 39.854 2.192 C39.419 1.903 39.04 1.547 38.571 1.299 C36.748 0.397 34.581 0.276 32.73 1.164 C32.01 1.652 31.216 2.088 30.671 2.789 C30.671 1.838 32.15 1.332 32.992 0.766 C33.329 0.653 33.667 0.567 34.007 0.424 C36.251 0 38.963 0.565 40.469 2.418 C41.008 3.215 43.23 8.291 36.34 10.26 C35.984 10.36 33.638 10.727 32.803 10.579 Z" transform="translate(132.502, 41.933)"/>
  </g>
  <path style="fill:none;stroke:#d9d9d9; stroke-width:0.5009; stroke-linecap:butt; stroke-linejoin:miter; stroke-dasharray:none;" d="M0 0 L0 38.609 " transform="translate(111.619, 9.143)"/>
  <path style="fill:none;stroke:#d9d9d9; stroke-width:0.5009; stroke-linecap:butt; stroke-linejoin:miter; stroke-dasharray:none;" d="M0 0 L0 38.608 " transform="translate(111.619, 95.503)"/>
  <g transform="translate(134.607, 68.1071)">
   <use style="fill:#b3b3b3;stroke:none;" xlink:href="#GlBitstreamVeraSans-Bold49" transform="matrix(1 0 0 1 1.61572 -2.57789)"/>
   <use style="fill:#b3b3b3;stroke:none;" xlink:href="#GlBitstreamVeraSans-Bold57" transform="matrix(1 0 0 1 8.57373 -2.57789)"/>
   <use style="fill:#b3b3b3;stroke:none;" xlink:href="#GlBitstreamVeraSans-Bold50" transform="matrix(1 0 0 1 15.5317 -2.57789)"/>
   <use style="fill:#b3b3b3;stroke:none;" xlink:href="#GlBitstreamVeraSans-Bold46" transform="matrix(1 0 0 1 22.4897 -2.57789)"/>
   <use style="fill:#b3b3b3;stroke:none;" xlink:href="#GlBitstreamVeraSans-Bold49" transform="matrix(1 0 0 1 26.2886 -2.57789)"/>
   <use style="fill:#b3b3b3;stroke:none;" xlink:href="#GlBitstreamVeraSans-Bold54" transform="matrix(1 0 0 1 33.2466 -2.57789)"/>
   <use style="fill:#b3b3b3;stroke:none;" xlink:href="#GlBitstreamVeraSans-Bold56" transform="matrix(1 0 0 1 40.2046 -2.57789)"/>
   <use style="fill:#b3b3b3;stroke:none;" xlink:href="#GlBitstreamVeraSans-Bold46" transform="matrix(1 0 0 1 47.1626 -2.57789)"/>
   <use style="fill:#b3b3b3;stroke:none;" xlink:href="#GlBitstreamVeraSans-Bold49" transform="matrix(1 0 0 1 50.9614 -2.57789)"/>
   <use style="fill:#b3b3b3;stroke:none;" xlink:href="#GlBitstreamVeraSans-Bold46" transform="matrix(1 0 0 1 57.9194 -2.57789)"/>
   <use style="fill:#b3b3b3;stroke:none;" xlink:href="#GlBitstreamVeraSans-Bold53" transform="matrix(1 0 0 1 61.7183 -2.57789)"/>
   <use style="fill:#b3b3b3;stroke:none;" xlink:href="#GlBitstreamVeraSans-Bold48" transform="matrix(1 0 0 1 68.6763 -2.57789)"/>
   <path style="fill:none; stroke:none;" d="M0 0 L77.7857 0 L77.7857 15.75 L0 15.75 L0 0 Z"/>
  </g>
  <g transform="translate(11.5357, 81.3571)">
   <use style="fill:#b3b3b3;stroke:none;" xlink:href="#GlBitstreamVeraSans-Roman114" transform="matrix(1.2 0 0 1.2 26.8994 -2.87281)"/>
   <use style="fill:#b3b3b3;stroke:none;" xlink:href="#GlBitstreamVeraSans-Roman101" transform="matrix(1.2 0 0 1.2 31.5693 -2.87281)"/>
   <use style="fill:#b3b3b3;stroke:none;" xlink:href="#GlBitstreamVeraSans-Roman108" transform="matrix(1.2 0 0 1.2 38.9521 -2.87281)"/>
   <use style="fill:#b3b3b3;stroke:none;" xlink:href="#GlBitstreamVeraSans-Roman101" transform="matrix(1.2 0 0 1.2 42.2861 -2.87281)"/>
   <use style="fill:#b3b3b3;stroke:none;" xlink:href="#GlBitstreamVeraSans-Roman97" transform="matrix(1.2 0 0 1.2 49.6689 -2.87281)"/>
   <use style="fill:#b3b3b3;stroke:none;" xlink:href="#GlBitstreamVeraSans-Roman114" transform="matrix(1.2 0 0 1.2 57.0225 -2.87281)"/>
   <use style="fill:#b3b3b3;stroke:none;" xlink:href="#GlBitstreamVeraSans-Roman110" transform="matrix(1.2 0 0 1.2 61.7451 -2.87281)"/>
   <path style="fill:none; stroke:none;" d="M0 0 L97 0 L97 17.6786 L0 17.6786 L0 0 Z"/>
  </g>
 </g>
</svg>
