<?xml version="1.0" encoding="UTF-8" standalone="no"?>
<!-- Created with Inkscape (http://www.inkscape.org/) -->
<svg xmlns:dc="http://purl.org/dc/elements/1.1/" xmlns:cc="http://creativecommons.org/ns#" xmlns:rdf="http://www.w3.org/1999/02/22-rdf-syntax-ns#" xmlns:svg="http://www.w3.org/2000/svg" xmlns="http://www.w3.org/2000/svg" xmlns:xlink="http://www.w3.org/1999/xlink" xmlns:sodipodi="http://sodipodi.sourceforge.net/DTD/sodipodi-0.dtd" xmlns:inkscape="http://www.inkscape.org/namespaces/inkscape" width="744.09448819" height="1052.3622047" id="svg3186" version="1.1">
  <defs id="defs3188">
    
    
    
    
    
    
    <marker orient="auto" refY="0" refX="0" id="Arrow1Mstart" style="overflow:visible">
      <path id="path4478" d="M 0,0 5,-5 -12.5,0 5,5 0,0 z" style="fill-rule:evenodd;stroke:#000000;stroke-width:1pt" transform="matrix(0.4,0,0,0.4,4,0)"/>
    </marker>
    <marker orient="auto" refY="0" refX="0" id="Arrow1Mend" style="overflow:visible">
      <path id="path4481" d="M 0,0 5,-5 -12.5,0 5,5 0,0 z" style="fill-rule:evenodd;stroke:#000000;stroke-width:1pt" transform="matrix(-0.4,0,0,-0.4,-4,0)"/>
    </marker>
    
    <marker orient="auto" refY="0" refX="0" id="Arrow1Mstart-0" style="overflow:visible">
      <path id="path4478-5" d="M 0,0 5,-5 -12.5,0 5,5 0,0 z" style="fill-rule:evenodd;stroke:#000000;stroke-width:1pt" transform="matrix(0.4,0,0,0.4,4,0)"/>
    </marker>
    <marker orient="auto" refY="0" refX="0" id="Arrow1Mend-1" style="overflow:visible">
      <path id="path4481-5" d="M 0,0 5,-5 -12.5,0 5,5 0,0 z" style="fill-rule:evenodd;stroke:#000000;stroke-width:1pt" transform="matrix(-0.4,0,0,-0.4,-4,0)"/>
    </marker>
    
    
    
    
    
  </defs>
  
  <metadata id="metadata3191">
    
  </metadata>
  <g id="layer1">
        <text xml:space="preserve" style="font-size:10px;font-style:normal;font-variant:normal;font-weight:normal;font-stretch:normal;text-align:start;line-height:125%;letter-spacing:0px;word-spacing:0px;text-anchor:start;fill:#000000;fill-opacity:1;stroke:none;font-family:Univers Else;-inkscape-font-specification:Univers Else" x="55.186329" y="128.9025" id="text3930"><tspan id="tspan3932" x="55.186329" y="128.9025"/></text>
    <path style="fill:none;stroke:#000000;stroke-width:1px;stroke-linecap:butt;stroke-linejoin:miter;stroke-opacity:1" d="m 262.07739,568.46181 0,70.75" id="path3906"/>
    <path style="fill:none;stroke:#000000;stroke-width:1px;stroke-linecap:butt;stroke-linejoin:miter;stroke-opacity:1" d="m 333.36166,643.22631 0,48" id="path3910"/>
    <rect style="color:#000000;fill:#ffffff;fill-opacity:1;stroke:#000000;stroke-width:1.25;stroke-linecap:butt;stroke-linejoin:miter;stroke-miterlimit:4;stroke-opacity:1;stroke-dasharray:none;stroke-dashoffset:0;marker:none;visibility:visible;display:inline;overflow:visible;enable-background:accumulate" id="rect4249" width="438.85715" height="14" x="232.31499" y="633.87604"/>
    <path style="fill:none;stroke:#000000;stroke-width:1px;stroke-linecap:butt;stroke-linejoin:miter;stroke-opacity:1" d="m 358.31498,272.87604 0,230" id="path3084"/>
    <text xml:space="preserve" style="font-size:10px;font-style:normal;font-variant:normal;font-weight:normal;font-stretch:normal;text-align:start;line-height:125%;letter-spacing:0px;word-spacing:0px;text-anchor:start;fill:#000000;fill-opacity:1;stroke:none;font-family:Univers Else;-inkscape-font-specification:Univers Else" x="270.64597" y="726.72137" id="text2997"><tspan id="tspan2999" x="270.64597" y="726.72137">192.168.200.1</tspan></text>
    <text xml:space="preserve" style="font-size:10px;font-style:normal;font-variant:normal;font-weight:normal;font-stretch:normal;text-align:start;line-height:125%;letter-spacing:0px;word-spacing:0px;text-anchor:start;fill:#000000;fill-opacity:1;stroke:none;font-family:Univers Else;-inkscape-font-specification:Univers Else" x="346.42264" y="738.03674" id="text3001"><tspan id="tspan3003" x="346.42264" y="738.03674">Nam June Paik</tspan><tspan x="346.42264" y="750.53674" id="tspan4306">Channel 6</tspan></text>
    <text xml:space="preserve" style="font-size:10px;font-style:normal;font-variant:normal;font-weight:normal;font-stretch:normal;text-align:start;line-height:125%;letter-spacing:0px;word-spacing:0px;text-anchor:start;fill:#000000;fill-opacity:1;stroke:none;font-family:Univers Else;-inkscape-font-specification:Univers Else" x="211.08958" y="498.87598" id="text3036"><tspan x="211.08958" y="498.87598" id="tspan3040">Belgacom</tspan><tspan x="211.08958" y="511.37598" id="tspan4314">b-box2</tspan><tspan x="211.08958" y="523.87598" id="tspan4316">(DSL)</tspan></text>
    <text xml:space="preserve" style="font-size:10px;font-style:normal;font-variant:normal;font-weight:normal;font-stretch:normal;text-align:start;line-height:125%;letter-spacing:0px;word-spacing:0px;text-anchor:start;fill:#000000;fill-opacity:1;stroke:none;font-family:Univers Else;-inkscape-font-specification:Univers Else" x="264.45969" y="587.29022" id="text3050"><tspan id="tspan3052" x="264.45969" y="587.29022">192.168.1.1</tspan></text>
    <image y="485.52673" x="258.71924" id="image3062" height="91.798988" width="139.61824"/>
    <image y="695.84747" x="191.72757" id="image3073" height="15.964759" width="147.91838"/>
    <text xml:space="preserve" style="font-size:10px;font-style:normal;font-variant:normal;font-weight:normal;font-stretch:normal;text-align:start;line-height:125%;letter-spacing:0px;word-spacing:0px;text-anchor:start;fill:#000000;fill-opacity:1;stroke:none;font-family:Univers Else;-inkscape-font-specification:Univers Else" x="244.67538" y="643.66632" id="text3032"><tspan id="tspan3034" x="244.67538" y="643.66632">3COM 24 port switch</tspan></text>
    <text xml:space="preserve" style="font-size:10px;font-style:normal;font-variant:normal;font-weight:normal;font-stretch:normal;text-align:start;line-height:125%;letter-spacing:0px;word-spacing:0px;text-anchor:start;fill:#000000;fill-opacity:1;stroke:none;font-family:Univers Else;-inkscape-font-specification:Univers Else" x="365.31497" y="457.87604" id="text3096"><tspan id="tspan3098" x="365.31497" y="457.87604">telephone wire</tspan></text>
    <g id="g3897" transform="matrix(0.35319531,-0.3531953,0.3531953,0.35319531,84.016584,686.85471)">
      <path transform="translate(225,-23)" d="m 127,421.36218 c 0,19.32997 -15.67003,35 -35,35 -19.329966,0 -35,-15.67003 -35,-35 0,0 0,0 0,0" id="path3102" style="color:#000000;fill:none;stroke:#000000;stroke-width:1.25;stroke-linecap:butt;stroke-linejoin:miter;stroke-miterlimit:4;stroke-opacity:1;stroke-dasharray:none;stroke-dashoffset:0;marker:none;visibility:visible;display:inline;overflow:visible;enable-background:accumulate"/>
      <path transform="matrix(1.3633618,0,0,1.3633618,190.85306,-176.13277)" d="m 127,421.36218 c 0,19.32997 -15.67003,35 -35,35 -19.329966,0 -35,-15.67003 -35,-35 0,0 0,0 0,0" id="path3102-8" style="color:#000000;fill:none;stroke:#000000;stroke-width:0.87893069;stroke-linecap:butt;stroke-linejoin:miter;stroke-miterlimit:4;stroke-opacity:1;stroke-dasharray:none;stroke-dashoffset:0;marker:none;visibility:visible;display:inline;overflow:visible;enable-background:accumulate"/>
      <path transform="matrix(1.7512132,0,0,1.7512132,154.59592,-339.53283)" d="m 127,421.36218 c 0,19.32997 -15.67003,35 -35,35 -19.329966,0 -35,-15.67003 -35,-35 0,0 0,0 0,0" id="path3102-7" style="color:#000000;fill:none;stroke:#000000;stroke-width:0.71379089;stroke-linecap:butt;stroke-linejoin:miter;stroke-miterlimit:4;stroke-opacity:1;stroke-dasharray:none;stroke-dashoffset:0;marker:none;visibility:visible;display:inline;overflow:visible;enable-background:accumulate"/>
    </g>
    <text xml:space="preserve" style="font-size:10px;font-style:normal;font-variant:normal;font-weight:normal;font-stretch:normal;text-align:start;line-height:125%;letter-spacing:0px;word-spacing:0px;text-anchor:start;fill:#000000;fill-opacity:1;stroke:none;font-family:Univers Else;-inkscape-font-specification:Univers Else" x="274.64597" y="689.09637" id="text3902"><tspan id="tspan3904" x="274.64597" y="689.09637">192.168.1.3</tspan></text>
    <g id="g3952" transform="translate(206.31498,170.01386)">
      <text id="text3942" y="277.36218" x="33.5" style="font-size:10px;font-style:normal;font-variant:normal;font-weight:normal;font-stretch:normal;text-align:start;line-height:125%;letter-spacing:0px;word-spacing:0px;text-anchor:start;fill:#000000;fill-opacity:1;stroke:none;font-family:Univers Else;-inkscape-font-specification:Univers Else" xml:space="preserve"><tspan y="277.36218" x="33.5" id="tspan3944">€</tspan></text>
      <rect y="254.36218" x="23.5" height="40.5" width="27" id="rect3946" style="color:#000000;fill:none;stroke:#000000;stroke-width:1.25;stroke-linecap:butt;stroke-linejoin:miter;stroke-miterlimit:4;stroke-opacity:1;stroke-dasharray:none;stroke-dashoffset:0;marker:none;visibility:visible;display:inline;overflow:visible;enable-background:accumulate"/>
    </g>
    <text xml:space="preserve" style="font-size:10px;font-style:normal;font-variant:normal;font-weight:normal;font-stretch:normal;text-align:start;line-height:125%;letter-spacing:0px;word-spacing:0px;text-anchor:start;fill:#000000;fill-opacity:1;stroke:none;font-family:Univers Else;-inkscape-font-specification:Univers Else" x="272.74396" y="477.55225" id="text4142"><tspan id="tspan4144" x="272.74396" y="477.55225">109.134.193.109</tspan></text>
    <text xml:space="preserve" style="font-size:10px;font-style:normal;font-variant:normal;font-weight:normal;font-stretch:normal;text-align:start;line-height:125%;letter-spacing:0px;word-spacing:0px;text-anchor:start;fill:#000000;fill-opacity:1;stroke:none;font-family:Univers Else;-inkscape-font-specification:Univers Else" x="275.1922" y="465.53168" id="text4146"><tspan id="tspan4148" x="275.1922" y="465.53168">Public IP address</tspan></text>
    <text xml:space="preserve" style="font-size:10px;font-style:normal;font-variant:normal;font-weight:normal;font-stretch:normal;text-align:start;line-height:125%;letter-spacing:0px;word-spacing:0px;text-anchor:start;fill:#000000;fill-opacity:1;stroke:none;font-family:Univers Else;-inkscape-font-specification:Univers Else" x="189.33937" y="409.81592" id="text4150"><tspan id="tspan4152" x="189.33937" y="409.81592">ISP: Belgacom Skynet</tspan></text>
    <g id="g3897-3" transform="matrix(0.35319531,-0.3531953,0.3531953,0.35319531,141.82852,541.66461)">
      <path transform="translate(225,-23)" d="m 127,421.36218 c 0,19.32997 -15.67003,35 -35,35 -19.329966,0 -35,-15.67003 -35,-35 0,0 0,0 0,0" id="path3102-6" style="color:#000000;fill:none;stroke:#000000;stroke-width:1.25;stroke-linecap:butt;stroke-linejoin:miter;stroke-miterlimit:4;stroke-opacity:1;stroke-dasharray:none;stroke-dashoffset:0;marker:none;visibility:visible;display:inline;overflow:visible;enable-background:accumulate"/>
      <path transform="matrix(1.3633618,0,0,1.3633618,190.85306,-176.13277)" d="m 127,421.36218 c 0,19.32997 -15.67003,35 -35,35 -19.329966,0 -35,-15.67003 -35,-35 0,0 0,0 0,0" id="path3102-8-7" style="color:#000000;fill:none;stroke:#000000;stroke-width:0.87893069;stroke-linecap:butt;stroke-linejoin:miter;stroke-miterlimit:4;stroke-opacity:1;stroke-dasharray:none;stroke-dashoffset:0;marker:none;visibility:visible;display:inline;overflow:visible;enable-background:accumulate"/>
      <path transform="matrix(1.7512132,0,0,1.7512132,154.59592,-339.53283)" d="m 127,421.36218 c 0,19.32997 -15.67003,35 -35,35 -19.329966,0 -35,-15.67003 -35,-35 0,0 0,0 0,0" id="path3102-7-6" style="color:#000000;fill:none;stroke:#000000;stroke-width:0.71379089;stroke-linecap:butt;stroke-linejoin:miter;stroke-miterlimit:4;stroke-opacity:1;stroke-dasharray:none;stroke-dashoffset:0;marker:none;visibility:visible;display:inline;overflow:visible;enable-background:accumulate"/>
    </g>
    <text xml:space="preserve" style="font-size:10px;font-style:normal;font-variant:normal;font-weight:normal;font-stretch:normal;text-align:start;line-height:125%;letter-spacing:0px;word-spacing:0px;text-anchor:start;fill:#000000;fill-opacity:1;stroke:none;font-family:Univers Else;-inkscape-font-specification:Univers Else" x="431.04498" y="581.70526" id="text4181"><tspan id="tspan4183" x="431.04498" y="581.70526">variable</tspan><tspan x="431.04498" y="594.20526" id="tspan4308">Channel 1 (2.4 GHz)</tspan><tspan x="431.04498" y="606.70526" id="tspan4310">WPA2</tspan></text>
    <text xml:space="preserve" style="font-size:10px;font-style:normal;font-variant:normal;font-weight:normal;font-stretch:normal;text-align:start;line-height:125%;letter-spacing:0px;word-spacing:0px;text-anchor:start;fill:#000000;fill-opacity:1;stroke:none;font-family:Univers Else;-inkscape-font-specification:Univers Else" x="106.93886" y="699.52728" id="text4209"><tspan id="tspan4211" x="106.93886" y="699.52728">LinkSYS/Cisco</tspan><tspan x="106.93886" y="712.02728" id="tspan4312">WRT320N</tspan></text>
    <text xml:space="preserve" style="font-size:10px;font-style:normal;font-variant:normal;font-weight:normal;font-stretch:normal;text-align:start;line-height:125%;letter-spacing:0px;word-spacing:0px;text-anchor:start;fill:#000000;fill-opacity:1;stroke:none;font-family:Univers Else;-inkscape-font-specification:Univers Else" x="127.58707" y="263.14813" id="text4229"><tspan id="tspan4231" x="127.58707" y="263.14813">The</tspan><tspan x="127.58707" y="275.64813" id="tspan4233">Internet</tspan></text>
    <text xml:space="preserve" style="font-size:10px;font-style:normal;font-variant:normal;font-weight:normal;font-stretch:normal;text-align:start;line-height:125%;letter-spacing:0px;word-spacing:0px;text-anchor:start;fill:#000000;fill-opacity:1;stroke:none;font-family:Univers Else;-inkscape-font-specification:Univers Else" x="122.4155" y="536.80487" id="text4235"><tspan id="tspan4237" x="122.4155" y="536.80487">Rue Gallait</tspan></text>
    <path style="fill:none;stroke:#000000;stroke-width:1px;stroke-linecap:butt;stroke-linejoin:miter;stroke-opacity:1" d="m 232.45784,808.16173 c 0,-3 0,-6 0,-9 0,-0.6666 0.21082,-1.3675 0,-2 -0.14907,-0.4472 -0.85093,-0.5527 -1,-1 -0.3088,-0.9264 0.3194,-4.0418 0,-5 -0.2357,-0.7071 -0.7643,-1.2929 -1,-2 -0.31623,-0.9486 0.31623,-2.0513 0,-3 -0.14907,-0.4472 -0.78918,-0.5783 -1,-1 -0.10256,-0.2051 -0.14103,-2.8589 0,-3 0.4714,-0.4714 1.40372,0.2982 2,0 0.42164,-0.2108 0.57836,-0.7891 1,-1 0.29814,-0.149 0.70186,0.1491 1,0 0.42164,-0.2108 0.60777,-0.7385 1,-1 5.05181,-3.3678 0.0232,-0.01 3,-1 3.62529,-1.2084 0.7117,-0.4744 3,-2 1.24035,-0.8269 2.75965,-1.1731 4,-2 0.39223,-0.2615 0.66667,-0.6666 1,-1 0.66667,-0.3333 1.37983,-0.5865 2,-1 0.78446,-0.5229 1.15673,-1.5783 2,-2 0.29814,-0.149 0.66667,0 1,0 0.33333,-0.3333 0.57836,-0.7891 1,-1 0.29814,-0.149 0.7643,0.2357 1,0 0.2357,-0.2357 -0.2357,-0.7643 0,-1 0.2357,-0.2357 0.7643,-0.2357 1,0 0.5,0.5 -0.5,2.5 0,3 0.2357,0.2357 0.7643,-0.2357 1,0 0.4714,0.4714 -0.29814,1.4038 0,2 0.21082,0.4217 0.66667,0.6667 1,1 0,0.6667 -0.21082,1.3676 0,2 0.14907,0.4473 0.85093,0.5528 1,1 0.31623,0.9487 -0.31623,2.0514 0,3 0.2357,0.7071 0.7643,1.2929 1,2 0.3542,1.0626 -0.3542,2.9374 0,4 0.2357,0.7071 0.7643,1.2929 1,2 0.23439,0.7032 -0.27411,4.7259 0,5 1.33333,1.3334 1,-1.6666 1,1 0,0.3334 0.2357,0.7643 0,1 -0.2357,0.2357 -1,0.3334 -1,0 0,-0.3333 0.66667,0 1,0 0.33333,0 0.66667,0 1,0 2.34518,0 -0.4714,-0.2357 2,1 0.30433,0.1522 2.54964,0 3,0 4.33333,0 8.66667,0 13,0 0.33333,0 0.66667,0 1,0 0.33333,0 0.7643,-0.2357 1,0 0.2357,0.2357 0.2357,0.7643 0,1 -0.2357,0.2357 -0.7643,-0.2357 -1,0 -0.4714,0.4714 0.29814,1.4038 0,2 -0.21082,0.4217 -0.78918,0.5784 -1,1 -0.14907,0.2982 0.14907,0.7019 0,1 -0.21082,0.4217 -0.78918,0.5784 -1,1 -0.14907,0.2982 0.14907,0.7019 0,1 -0.21082,0.4217 -0.78918,0.5784 -1,1 -0.14907,0.2982 0.14907,0.7019 0,1 -0.21082,0.4217 -0.78918,0.5784 -1,1 -0.14907,0.2982 0.14907,0.7019 0,1 -0.21082,0.4217 -0.78918,0.5784 -1,1 -0.29814,0.5963 0.29814,1.4038 0,2 -0.21082,0.4217 -0.78918,0.5784 -1,1 -0.14907,0.2982 0.2357,0.7643 0,1 -0.2357,0.2357 -0.7643,0.2357 -1,0 -0.2357,-0.2357 0.2357,-0.7643 0,-1 -0.2357,-0.2357 -0.66667,0 -1,0 -0.33333,0 -0.66667,0 -1,0 -2,0 -4,0 -6,0 -0.45036,0 -2.69567,-0.1521 -3,0 -0.42164,0.2109 -0.57836,0.7892 -1,1 -0.22413,0.1121 -3.76237,0 -4,0 -0.45036,0 -2.69567,0.1522 -3,0 -0.42164,-0.2108 -0.55279,-0.8509 -1,-1 -0.51517,-0.1717 -5.94218,0 -7,0 -0.33333,0 -0.66667,0 -1,0 -0.33333,0 -0.7643,0.2357 -1,0 -0.2357,-0.2357 0.2357,-0.7643 0,-1 -0.0453,-0.045 -4.5285,0 -5,0 -0.33333,0 -0.7643,-0.2357 -1,0 -0.2357,0.2357 0.2357,0.7643 0,1 -0.2357,0.2357 -0.73971,0.2083 -1,0 -1.47242,-1.1779 -4,-2.1143 -4,-4 0,-1.3743 2.62563,1 4,1 0.19291,0 1.51446,-1.6763 2,-2 0.62017,-0.4134 1.37983,-0.5865 2,-1 0.39223,-0.2615 0.60777,-0.7385 1,-1 0.62017,-0.4134 1.37983,-0.5865 2,-1 0.39223,-0.2615 0.60777,-0.7385 1,-1 0.62017,-0.4134 1.40372,-0.5527 2,-1 4.32529,-4.3253 -0.26491,-0.1567 4,-3 0.39223,-0.2615 0.55279,-0.8509 1,-1 0.63246,-0.2108 1.36754,0.2109 2,0 0.89443,-0.2981 1.15673,-1.5783 2,-2 0.29814,-0.149 0.66667,0 1,0 0.33333,0 0.66667,0 1,0" id="path4255"/>
    <path style="fill:none;stroke:#000000;stroke-width:1px;stroke-linecap:butt;stroke-linejoin:miter;stroke-opacity:1" d="m 363.17212,887.73315 c -4.00754,0.4883 -1.33114,-4.6622 -2,-6 -0.21082,-0.4216 -0.78918,-0.5783 -1,-1 -0.14907,-0.2981 0,-0.6666 0,-1 -0.33333,-0.3333 -0.78918,-0.5783 -1,-1 -0.14907,-0.2981 0.2357,-0.7643 0,-1 -0.2357,-0.2357 -0.7643,0.2357 -1,0 -0.2357,-0.2357 0.14907,-0.7018 0,-1 -3.31658,-3.3165 0.4714,0.9428 -1,-2 -0.21082,-0.4216 -0.78918,-0.5783 -1,-1 -0.14907,-0.2981 0.14907,-0.7018 0,-1 -0.21082,-0.4216 -0.78918,-0.5783 -1,-1 -0.14907,-0.2981 0.14907,-0.7018 0,-1 -0.6,-1.2 -2.4,-1.8 -3,-3 -0.14907,-0.2981 0,-0.6666 0,-1 -0.33333,-0.3333 -0.78918,-0.5783 -1,-1 -0.29814,-0.5962 0.4714,-1.5286 0,-2 -0.2357,-0.2357 -0.7643,0.2357 -1,0 -0.2357,-0.2357 -0.2357,-0.7643 0,-1 0.4714,-0.4714 1.40372,0.2982 2,0 3.31658,-3.3165 -0.94281,0.4714 2,-1 0.42164,-0.2108 0.57836,-0.7891 1,-1 0.29814,-0.149 0.70186,0.1491 1,0 0.42164,-0.2108 0.57836,-0.7891 1,-1 0.29814,-0.149 0.70186,0.1491 1,0 0.42164,-0.2108 0.57836,-0.7891 1,-1 0.29814,-0.149 0.70186,0.1491 1,0 0.42164,-0.2108 0.55279,-0.8509 1,-1 0.63246,-0.2108 1.36754,0.2109 2,0 0.89443,-0.2981 1.10557,-1.7018 2,-2 0.63246,-0.2108 1.36754,0.2109 2,0 0.89443,-0.2981 1.15673,-1.5783 2,-2 0.29814,-0.149 0.70186,0.1491 1,0 1.2,-0.6 1.8,-2.4 3,-3 1.37936,-0.6896 0.89447,1.2111 2,-1 0.14907,-0.2981 -0.2357,-0.7643 0,-1 0.2357,-0.2357 0.70186,0.1491 1,0 0.42164,-0.2108 0.57836,-0.7891 1,-1 0.29814,-0.149 0.7643,0.2357 1,0 0.2357,-0.2357 -0.2357,-0.7643 0,-1 0.2357,-0.2357 0.7643,0.2357 1,0 0.2357,-0.2357 -0.2357,-0.7643 0,-1 0.2357,-0.2357 0.7643,0.2357 1,0 0.2357,-0.2357 -0.2357,-0.7643 0,-1 0.2357,-0.2357 0.7643,-0.2357 1,0 0.0402,0.04 0,3.6328 0,4 0,2.3334 0,4.6667 0,7 0,0.4504 -0.15217,2.6957 0,3 0.21082,0.4217 0.78918,0.5784 1,1 0.14907,0.2982 0,0.6667 0,1 0,0.3334 0,0.6667 0,1 0,2 0,4 0,6 0,0.3334 0.2357,0.7643 0,1 -0.2357,0.2357 -0.7643,-0.2357 -1,0 -0.5,0.5 0.5,2.5 0,3 -0.2357,0.2357 -0.7643,-0.2357 -1,0 -0.2357,0.2357 -0.2357,0.7643 0,1 0.2357,0.2357 0.66667,0 1,0 0.33333,0 0.70186,0.1491 1,0 0.42164,-0.2108 0.57836,-0.7891 1,-1 0.29814,-0.149 0.66667,0 1,0 7,0 14,0 21,0 0.36724,0 3.95976,-0.04 4,0 0.2357,0.2357 0.2357,0.7643 0,1 -0.2357,0.2357 -0.7643,-0.2357 -1,0 -0.2357,0.2357 0.2357,0.7643 0,1 -0.2357,0.2357 -0.7643,-0.2357 -1,0 -0.4714,0.4714 0.29814,1.4038 0,2 -0.21082,0.4217 -0.78918,0.5784 -1,1 -0.29814,0.5963 0.29814,1.4038 0,2 -0.21082,0.4217 -0.78918,0.5784 -1,1 -0.29814,0.5963 0.4714,1.5286 0,2 -0.2357,0.2357 -0.7643,-0.2357 -1,0 -0.30965,0.3097 0.30965,4.6904 0,5 -0.2357,0.2357 -0.7643,0.2357 -1,0 -0.2357,-0.2357 0.2357,-0.7643 0,-1 -0.2357,-0.2357 -1,0.3334 -1,0 0,-0.3333 1.33333,0 1,0 -5.66667,0 -0.33333,-0.6666 -2,1 -0.27362,0.2737 -3.45751,-0.2712 -4,0 -0.42164,0.2109 -0.57836,0.7892 -1,1 -0.44498,0.2225 -3.54261,-0.1524 -4,0 -0.44721,0.1491 -0.55279,0.851 -1,1 -0.58508,0.1951 -5.14167,0 -6,0 -0.33333,0 -0.70186,-0.149 -1,0 -0.42164,0.2109 -0.57836,0.7892 -1,1 -0.29814,0.1491 -0.66667,0 -1,0 -0.33333,0 -0.70186,0.1491 -1,0 -0.42164,-0.2108 -0.57836,-0.7891 -1,-1 -0.60722,-0.3036 -5.39278,0.3036 -6,0 -2.4714,-1.2357 0.34518,-1 -2,-1 -2.7883,0 -8.99399,0.015 -9,0 -0.66667,-1.6666 1.29289,-3.35 2,-5 0.29361,-0.6851 0.66667,-1.3333 1,-2 0.33333,-0.6666 0.55279,-1.4037 1,-2 0.56569,-0.7542 1.33333,-1.3333 2,-2 0.66667,-0.6666 1.24575,-1.4343 2,-2 0.59629,-0.4472 1.47295,-0.4729 2,-1 0.52705,-0.527 0.55279,-1.4037 1,-2 2.16265,-2.8835 1.44481,-1.2965 4,-3 0.39223,-0.2615 0.60777,-0.7385 1,-1 0.62017,-0.4134 1.37983,-0.5865 2,-1 0.23431,-0.1562 1.23668,-1.7633 2,-1 0.2357,0.2357 0.2357,0.7643 0,1 -0.2357,0.2357 -0.7643,-0.2357 -1,0 -0.2357,0.2357 0,0.6667 0,1" id="path4259"/>
    <path style="fill:none;stroke:#000000;stroke-width:1px;stroke-linecap:butt;stroke-linejoin:miter;stroke-opacity:1" d="m 454.74355,896.44744 c 0,-1.6666 0,-3.3333 0,-5 0,-0.3333 0.14907,-0.7018 0,-1 -0.21082,-0.4216 -0.78918,-0.5783 -1,-1 -0.4,-0.8 0.4,-2.2 0,-3 -0.21082,-0.4216 -0.78918,-0.5783 -1,-1 -0.14907,-0.2981 0,-0.6666 0,-1 0,-0.6666 0.21082,-1.3675 0,-2 -0.14907,-0.4472 -0.78918,-0.5783 -1,-1 -0.26853,-0.537 0.26853,-1.4629 0,-2 -1.2357,-2.4714 -1,0.3452 -1,-2 0,-0.3333 0,-0.6666 0,-1 0,-0.3333 0.2357,-0.7643 0,-1 -0.2357,-0.2357 -0.7643,0.2357 -1,0 -0.2357,-0.2357 -0.2357,-0.7643 0,-1 0.4714,-0.4714 1.40372,0.2982 2,0 0.42164,-0.2108 0.57836,-0.7891 1,-1 0.29814,-0.149 0.7643,0.2357 1,0 0.2357,-0.2357 -0.2357,-0.7643 0,-1 0.2357,-0.2357 0.70186,0.1491 1,0 0.42164,-0.2108 0.57836,-0.7891 1,-1 0.29814,-0.149 0.70186,0.1491 1,0 1.2,-0.6 1.8,-2.4 3,-3 0.29814,-0.149 0.7643,0.2357 1,0 0.2357,-0.2357 -0.14907,-0.7018 0,-1 2.08088,-4.1617 -0.069,1.0691 2,-1 0.2357,-0.2357 -0.2357,-0.7643 0,-1 2.06904,-2.069 -0.0809,3.1618 2,-1 0.14907,-0.2981 -0.2357,-0.7643 0,-1 2.06904,-2.069 -0.0809,3.1618 2,-1 0.14907,-0.2981 -0.14907,-0.7018 0,-1 0.42164,-0.8432 1.57836,-1.1567 2,-2 0.14907,-0.2981 -0.2357,-0.7643 0,-1 0.2357,-0.2357 0.7643,0.2357 1,0 0.2357,-0.2357 -0.2357,-0.7643 0,-1 0.2357,-0.2357 0.7643,-0.2357 1,0 0.2357,0.2357 -0.2357,0.7643 0,1 0.2357,0.2357 0.7643,-0.2357 1,0 0.5,0.5 -0.5,2.5 0,3 0.2357,0.2357 0.7643,-0.2357 1,0 0.27362,0.2737 -0.27124,3.4575 0,4 0.21082,0.4217 0.78918,0.5784 1,1 0.13325,0.2665 0,5.5476 0,6 0,0.3334 -0.14907,0.7019 0,1 0.21082,0.4217 0.85093,0.5528 1,1 0.17172,0.5152 0,5.9422 0,7 0,2.3452 -0.2357,-0.4714 1,2 0.14907,0.2982 0,0.6667 0,1 0,0.3334 0,0.6667 0,1 0,0.3334 -0.33333,1 0,1 0.4714,0 0.57836,-0.7891 1,-1 0.30433,-0.1521 2.54964,0 3,0 0.52292,0 3.73706,-0.1314 4,0 0.42164,0.2109 0.57836,0.7892 1,1 0.36163,0.1809 4.30446,0 5,0 2.34518,0 -0.4714,0.2357 2,-1 0.29814,-0.149 0.66667,0 1,0 0.33333,0 0.66667,0 1,0 0.33333,0 1,-0.3333 1,0 0,0.6667 -1.40371,-0.2981 -2,0 -0.19142,0.096 -3.90429,3.8086 -4,4 -0.14907,0.2982 0.2357,0.7643 0,1 -0.2357,0.2357 -0.7643,-0.2357 -1,0 -0.2357,0.2357 0.14907,0.7019 0,1 -1.18356,2.3672 -0.81644,-0.3671 -2,2 -0.29814,0.5963 0.4714,1.5286 0,2 -0.2357,0.2357 -0.7643,-0.2357 -1,0 -0.2357,0.2357 0.14907,0.7019 0,1 -0.42164,0.8433 -1.57836,1.1568 -2,2 -0.14907,0.2982 0.2357,0.7643 0,1 -0.2357,0.2357 -0.7643,-0.2357 -1,0 -0.2357,0.2357 0.14907,0.7019 0,1 -0.6,1.2 -2.4,1.8 -3,3 -0.14907,0.2982 0.2357,0.7643 0,1 -0.2357,0.2357 -0.7643,-0.2357 -1,0 -0.4714,0.4714 0.4714,1.5286 0,2 -0.2357,0.2357 -0.7643,-0.2357 -1,0 -0.2357,0.2357 0.33333,1 0,1 -0.4714,0 -0.57836,-0.7891 -1,-1 -0.59628,-0.2981 -1.5286,0.4714 -2,0 -0.2357,-0.2357 0.2357,-0.7643 0,-1 -0.20444,-0.2044 -2.60351,0.1983 -3,0 -0.42164,-0.2108 -0.57836,-0.7891 -1,-1 -0.59628,-0.2981 -1.36754,0.2109 -2,0 -1.80994,0.6028 -1.85982,-1.6199 -3,-2 -0.63246,-0.2108 -1.36754,0.2109 -2,0 -0.89443,-0.2981 -1.15673,-1.5783 -2,-2 -2.59188,-1.2959 -4.21339,8.5063 -6,-4 -0.0838,-0.5863 4.60227,-3.5341 6,-4 0.31623,-0.1054 0.68377,0.1054 1,0 0.70711,-0.2357 1.33333,-0.6666 2,-1 1.33333,-0.6666 2.66667,-1.3333 4,-2 1.33333,-0.6666 2.72173,-1.233 4,-2 1.03058,-0.6183 1.96942,-1.3816 3,-2 0.63914,-0.3834 1.37983,-0.5865 2,-1 0.39223,-0.2615 0.60777,-0.7385 1,-1 1.37258,-0.915 2.62742,-1.0849 4,-2 0.78446,-0.5229 1.15673,-1.5783 2,-2 0.59763,-0.2988 2,0.6583 2,-1 0,-0.3333 -0.66667,0 -1,0" id="path4261"/>
    <path style="fill:none;stroke:#000000;stroke-width:1px;stroke-linecap:butt;stroke-linejoin:miter;stroke-opacity:1" d="m 598.65669,602.60684 c -1.72754,0.1733 -0.67485,-6.3497 -1,-7 -0.21082,-0.4216 -0.78918,-0.5783 -1,-1 -0.29501,-0.59 0.22928,-2.3122 0,-3 -0.2357,-0.7071 -0.7643,-1.2929 -1,-2 -0.21082,-0.6324 0.29814,-1.4037 0,-2 -0.21082,-0.4216 -0.78918,-0.5783 -1,-1 -0.14907,-0.2981 0,-0.6666 0,-1 -0.33333,-0.3333 -0.78918,-0.5783 -1,-1 -0.29814,-0.5963 0.4714,-1.5286 0,-2 -0.44444,-0.4444 -1.88889,0.7778 -1,-1 0.21082,-0.4216 0.78918,-0.5783 1,-1 0.14907,-0.2981 -0.2357,-0.7643 0,-1 0.2357,-0.2357 0.7643,0.2357 1,0 0.2357,-0.2357 -0.14907,-0.7018 0,-1 0.42164,-0.8433 1.47702,-1.2155 2,-2 1.53287,-2.2993 0.46713,-2.7007 2,-5 0.26149,-0.3922 0.73851,-0.6078 1,-1 0.41345,-0.6202 0.58655,-1.3798 1,-2 0.71795,-1.0769 1.28205,-0.9231 2,-2 0.41345,-0.6202 0.58655,-1.3798 1,-2 0.26149,-0.3922 0.78918,-0.5783 1,-1 0.14907,-0.2981 -0.2357,-0.7643 0,-1 0.2357,-0.2357 0.7643,0.2357 1,0 0.2357,-0.2357 -0.2357,-0.7643 0,-1 0.2357,-0.2357 0.7643,0.2357 1,0 0.4714,-0.4714 -0.4714,-1.5286 0,-2 0.2357,-0.2357 0.7643,0.2357 1,0 0.2357,-0.2357 -0.2357,-0.7643 0,-1 0.2357,-0.2357 0.7643,-0.2357 1,0 0.2357,0.2357 0,0.6667 0,1 0,1.6667 0,3.3334 0,5 0,0.8467 -0.1792,3.4624 0,4 0.14907,0.4472 0.78918,0.5784 1,1 0.13147,0.263 0,3.4771 0,4 0,3.3334 0,6.6667 0,10 0,0.3673 -0.0402,3.9598 0,4 0.2357,0.2357 0.66667,0 1,0 0.45036,0 2.69567,0.1522 3,0 0.42164,-0.2108 0.57836,-0.7892 1,-1 0.29814,-0.1491 0.66667,0 1,0 0.33333,0 0.66667,0 1,0 2,0 4,0 6,0 0.36724,0 3.95976,0.04 4,0 0.2357,-0.2357 -0.2357,-0.7643 0,-1 0.2357,-0.2357 0.66667,0 1,0 0.33333,0 0.7643,-0.2357 1,0 0.2357,0.2357 -0.2357,0.7643 0,1 0.4714,0.4714 2,-0.6666 2,0 0,0.3334 -0.7643,-0.2357 -1,0 -0.33333,0.3334 0.33333,1.6667 0,2 -0.2357,0.2357 -0.7643,-0.2357 -1,0 -0.4714,0.4714 0.4714,1.5286 0,2 -0.2357,0.2357 -0.7643,-0.2357 -1,0 -0.5,0.5 0.5,2.5 0,3 -0.2357,0.2357 -0.7643,-0.2357 -1,0 -0.27362,0.2736 0.27124,3.4575 0,4 -0.21082,0.4217 -0.78918,0.5784 -1,1 -0.31426,0.6285 0.31426,3.3715 0,4 -0.21082,0.4217 -0.78918,0.5784 -1,1 -0.26667,0.5334 0.26667,1.4667 0,2 -0.21082,0.4217 -0.78918,0.5784 -1,1 -0.29814,0.5963 0.4714,1.5286 0,2 -0.0322,0.032 -2.75747,0 -3,0 -0.45036,0 -2.69567,0.1522 -3,0 -0.42164,-0.2108 -0.57836,-0.7892 -1,-1 -0.5503,-0.2751 -5.21821,0.2606 -6,0 -0.44721,-0.1491 -0.57836,-0.7892 -1,-1 -0.44498,-0.2225 -3.54261,0.1525 -4,0 -0.44721,-0.1491 -0.57836,-0.7892 -1,-1 -0.59628,-0.2981 -1.42834,0.343 -2,0 -1.42915,-0.8575 -3.41479,-1.4394 -4,-3 -1.87032,-4.9875 0.61988,-3.9298 2,-6 0.41345,-0.6202 0.7643,-1.2929 1,-2 0.99228,-2.9768 -2.36787,2.0518 1,-3 0.60688,-0.9103 2.55683,-2.1136 3,-3 0.14907,-0.2981 -0.2357,-0.7643 0,-1 0.2357,-0.2357 0.70186,0.1491 1,0 0.84327,-0.4216 1.15673,-1.5783 2,-2 0.29814,-0.1491 0.70186,0.1491 1,0 0.26035,-0.1302 1.21827,-1.7817 2,-1 0.2357,0.2357 0.2357,0.7643 0,1 -0.2357,0.2357 -0.66667,0 -1,0" id="path4263"/>
    <path style="fill:none;stroke:#000000;stroke-width:1px;stroke-linecap:butt;stroke-linejoin:miter;stroke-opacity:1" d="m 627.86775,891.66215 c 0,-1.6667 0,-3.3334 0,-5 0,-0.3334 0.14907,-0.7019 0,-1 -0.21082,-0.4217 -0.78918,-0.5784 -1,-1.00004 -0.14907,-0.29814 0,-0.66666 0,-1 0,-0.8187 0.21597,-4.35208 0,-5 -0.2357,-0.7071 -0.81922,-1.2769 -1,-2 -0.2033,-0.8132 0,-4.95316 0,-6 0,-0.33333 0,-0.66666 0,-1 0,-0.33333 0.14907,-0.70186 0,-1 -0.21082,-0.42163 -0.78918,-0.57836 -1,-1 -0.14907,-0.29814 0,-0.66666 0,-1 0,-0.33333 0,-0.66666 0,-1 0,-2 0,-4 0,-6 0,-0.33333 0,-0.66666 0,-1 0,-0.33333 -0.2357,-0.7643 0,-1 0.2357,-0.2357 0.7643,0.2357 1,0 0.2357,-0.2357 -0.14907,-0.70186 0,-1 0.42164,-0.84327 1.57836,-1.15672 2,-2 0.14907,-0.29814 -0.14907,-0.70186 0,-1 0.49201,-0.98403 3.50799,-3.01597 4,-4 0.14907,-0.29814 -0.2357,-0.7643 0,-1 0.2357,-0.2357 0.70186,0.14907 1,0 0.42164,-0.21082 0.66667,-0.66666 1,-1 0.33333,-0.33333 0.78918,-0.57836 1,-1 0,-2.66666 -0.33333,0.33334 1,-1 0.2357,-0.2357 -0.33333,-1 0,-1 1.42005,0 1,2.28901 1,3 0,0.45036 -0.15217,2.69567 0,3 0.21082,0.42164 0.85093,0.55279 1,1 0.15246,0.45739 -0.22249,3.55503 0,4 0.21082,0.42164 0.78918,0.57837 1,1 0.4,0.8 -0.4,2.2 0,3 0.21082,0.42164 0.78918,0.57837 1,1 0.26667,0.53334 -0.26667,1.46667 0,2 0.21082,0.42164 0.78918,0.57837 1,1 0.4,0.8 -0.4,2.2 0,3 0.21082,0.42164 0.78918,0.57837 1,1 0.13147,0.26294 0,3.47708 0,4 0,0.33334 0,0.66667 0,1 0,0.33334 -0.2357,0.7643 0,1 0.2357,0.2357 0.7643,-0.2357 1,0 0.2357,0.2357 0.33333,1 0,1 -0.33333,0 0.33333,-1 0,-1 -2.08088,0 -0.40237,1.40237 -1,2 -0.2357,0.2357 -0.7643,-0.2357 -1,0 -0.2357,0.2357 0.2357,0.7643 0,1 -0.2357,0.2357 -1,0.33334 -1,0 0,-0.33333 0.66667,0 1,0 0.33333,0 0.66667,0 1,0 1.33333,0 2.66667,0 4,0 2.66667,0 5.33333,0 8,0 0.52292,0 3.73706,-0.13147 4,0 0.42164,0.21082 0.57836,0.78918 1,1 1.74755,0.87378 0.37377,-1 2,-1 0.33333,0 0,0.66667 0,1 0,0.66667 0,1.33334 0,2 0,0.33334 0,0.66667 0,1 0,0.33334 0.2357,0.7643 0,1 -0.2357,0.2357 -0.7643,-0.2357 -1,0 -0.2357,0.2357 0,0.66667 0,1 0,2 0,4.00004 0,6.00004 0,0.3333 0.2357,0.7643 0,1 -0.2357,0.2357 -0.7643,-0.2357 -1,0 -0.30965,0.3096 0.30965,4.6903 0,5 -0.2357,0.2357 -0.66667,0 -1,0 -0.33333,0 -0.66667,0 -1,0 -0.33333,0 -0.70186,0.149 -1,0 -2.4714,-1.2357 0.34518,-1 -2,-1 -7,0 -14,0 -21,0 -1.52962,0 -5,0.149 -5,-2 0,-1.6667 2.82149,-1.8215 4,-3 0.52705,-0.5271 0.58655,-1.3799 1,-2 0.26149,-0.3923 0.85093,-0.5528 1,-1 0.21082,-0.63249 -0.21082,-1.36758 0,-2.00004 0.14907,-0.44721 0.73851,-0.60777 1,-1 0.41345,-0.62017 0.58655,-1.37982 1,-2 0.52298,-0.78446 1.57836,-1.15672 2,-2 0.14907,-0.29814 -0.14907,-0.70186 0,-1 0.21082,-0.42163 0.78918,-0.57836 1,-1 0.14907,-0.29814 -0.2357,-0.7643 0,-1 0.2357,-0.2357 0.7643,0.2357 1,0 1.33333,-1.33333 -1.66667,-1 1,-1" id="path4265"/>
    <path style="fill:none;stroke:#000000;stroke-width:1px;stroke-linecap:butt;stroke-linejoin:miter;stroke-opacity:1" d="m 559.14917,903.72806 c 1.25171,-2.9892 1,-5.8912 1,-9 0,-1 0.31623,-2.0513 0,-3 -0.14907,-0.4472 -0.78918,-0.5783 -1,-1 -0.14907,-0.2981 0,-0.6666 0,-1 0,-0.6666 0.21082,-1.3675 0,-2 -0.14907,-0.4472 -0.78918,-0.5783 -1,-1 -0.27124,-0.5425 0.27362,-3.7264 0,-4 -0.44444,-0.4444 -1.88889,0.7778 -1,-1 0.27782,-0.5556 2,-1.6775 2,-2 0,-0.3333 -1,0.3334 -1,0 0,-0.4714 0.66667,-0.6666 1,-1 0.33333,-0.3333 0.57836,-0.7892 1,-1 0.29814,-0.149 0.7643,0.2357 1,0 0.2357,-0.2357 -0.14907,-0.7018 0,-1 0.17883,-0.3576 3.58414,-3.7227 4,-4 0.62017,-0.4134 1.37983,-0.5865 2,-1 1.3757,-0.9171 1.02848,-1.5427 2,-3 0.26149,-0.3922 0.66667,-0.6666 1,-1 0.33333,-0.3333 0.57836,-0.7892 1,-1 0.29814,-0.149 0.7643,0.2357 1,0 0.2357,-0.2357 -0.2357,-0.7643 0,-1 0.2357,-0.2357 0.7643,0.2357 1,0 0.2357,-0.2357 -0.2357,-0.7643 0,-1 0.2357,-0.2357 0.66667,0 1,0 0.33333,0 0.7643,-0.2357 1,0 0.2357,0.2357 0,0.6667 0,1 0,1.6667 0,3.3334 0,5 0,0.9388 -0.191,4.427 0,5 0.14907,0.4472 0.85093,0.5528 1,1 0.16194,0.4859 0,5.9791 0,7 0,0.3334 -0.14907,0.7019 0,1 0.21082,0.4217 0.78918,0.5784 1,1 0.29814,0.5963 -0.29814,1.4037 0,2 0.21082,0.4217 0.78918,0.5784 1,1 0.29814,0.5963 -0.4714,1.5286 0,2 0.2357,0.2357 0.7643,-0.2357 1,0 0.2357,0.2357 0.2357,0.7643 0,1 -0.2357,0.2357 -0.7643,-0.2357 -1,0 -0.2357,0.2357 0,0.6667 0,1 0,0.3334 -0.2357,0.7643 0,1 0.2357,0.2357 0.66667,0 1,0 0.33333,0 0.66667,0 1,0 0.69554,0 4.63837,-0.1808 5,0 0.42164,0.2108 0.57836,0.7892 1,1 0.30404,0.152 3.30948,0 4,0 0.52292,0 3.73706,-0.1314 4,0 2.4714,1.2357 -0.34518,1 2,1 0.66667,0 1.33333,0 2,0 0.33333,0 1,-0.3333 1,0 0,0.4714 -0.78918,0.5784 -1,1 -0.14907,0.2982 0.14907,0.7019 0,1 -0.42164,0.8433 -1.57836,1.1568 -2,2 -0.14907,0.2982 0.14907,0.7019 0,1 -3.31658,3.3166 0.4714,-0.9428 -1,2 -2.2883,4.5766 0.41447,-4.2434 -2,3 -0.10541,0.3163 0.14907,0.7019 0,1 -0.42164,0.8433 -1.57836,1.1568 -2,2 -0.27124,0.5425 0.27362,3.7264 0,4 -0.2357,0.2357 -0.7643,-0.2357 -1,0 -0.4714,0.4714 0.4714,1.5286 0,2 -0.2357,0.2357 -0.7643,-0.2357 -1,0 -0.2357,0.2357 0.2357,0.7643 0,1 -0.2357,0.2357 -0.66667,0 -1,0 -0.45036,0 -2.69567,0.1522 -3,0 -0.42164,-0.2108 -0.57836,-0.7892 -1,-1 -0.62852,-0.3142 -3.37148,0.3143 -4,0 -0.42164,-0.2108 -0.55279,-0.8509 -1,-1 -1.26491,-0.4216 -2.73509,0.4217 -4,0 -0.44721,-0.149 -0.55279,-0.8509 -1,-1 -0.63246,-0.2108 -1.35324,0.1617 -2,0 -4.59628,-1.149 -0.22688,-1 -3,-1 -4.55228,0 -0.0572,0.4714 -3,-1 -0.39649,-0.1982 -2.79556,0.2045 -3,0 -0.2357,-0.2357 0.2357,-0.7643 0,-1 -0.23942,-0.2394 -4,0.2274 -4,0 0,-0.3333 0.70186,0.1491 1,0 0.42164,-0.2108 0.57836,-0.7892 1,-1 0.29814,-0.149 0.70186,0.1491 1,0 0.84327,-0.4216 1.21554,-1.477 2,-2 0.62017,-0.4134 1.33333,-0.6666 2,-1 0.66667,-0.6666 1.24575,-1.4343 2,-2 0.59629,-0.4472 1.40372,-0.5528 2,-1 0.75425,-0.5657 1.33333,-1.3333 2,-2 1.66667,-1.6666 3.33333,-3.3333 5,-5 0.33333,-0.3333 0.60777,-0.7385 1,-1 0.62017,-0.4134 1.47295,-0.4729 2,-1 0.2357,-0.2357 -0.2357,-0.7643 0,-1 0.2357,-0.2357 0.66667,0 1,0 1.8271,0 1,0.2399 1,2" id="path4267"/>
    <path style="fill:none;stroke:#000000;stroke-width:1px;stroke-linecap:butt;stroke-linejoin:miter;stroke-opacity:1" d="m 583.69975,599.44242 0,42.14069" id="path4269"/>
    <text xml:space="preserve" style="font-size:10px;font-style:normal;font-variant:normal;font-weight:normal;font-stretch:normal;text-align:start;line-height:125%;letter-spacing:0px;word-spacing:0px;text-anchor:start;fill:#000000;fill-opacity:1;stroke:none;font-family:Univers Else;-inkscape-font-specification:Univers Else" x="596.08527" y="625.60675" id="text4273"><tspan id="tspan4275" x="596.08527" y="625.60675">192.168.1.11</tspan></text>
    <text xml:space="preserve" style="font-size:10px;font-style:normal;font-variant:normal;font-weight:normal;font-stretch:normal;text-align:start;line-height:125%;letter-spacing:0px;word-spacing:0px;text-anchor:start;fill:#000000;fill-opacity:1;stroke:none;font-family:Univers Else;-inkscape-font-specification:Univers Else" x="197.02927" y="763.01892" id="text4277"><tspan id="tspan4279" x="197.02927" y="763.01892">192.168.200.120</tspan></text>
    <text xml:space="preserve" style="font-size:10px;font-style:normal;font-variant:normal;font-weight:normal;font-stretch:normal;text-align:start;line-height:125%;letter-spacing:0px;word-spacing:0px;text-anchor:start;fill:#000000;fill-opacity:1;stroke:none;font-family:Univers Else;-inkscape-font-specification:Univers Else" x="429.74356" y="855.01892" id="text4281"><tspan id="tspan4283" x="429.74356" y="855.01892">192.168.100.103</tspan></text>
    <text xml:space="preserve" style="font-size:10px;font-style:normal;font-variant:normal;font-weight:normal;font-stretch:normal;text-align:start;line-height:125%;letter-spacing:0px;word-spacing:0px;text-anchor:start;fill:#000000;fill-opacity:1;stroke:none;font-family:Univers Else;-inkscape-font-specification:Univers Else" x="334.97763" y="841.20245" id="text4281-3"><tspan id="tspan4283-4" x="334.97763" y="841.20245">192.168.100.101</tspan></text>
    <text xml:space="preserve" style="font-size:10px;font-style:normal;font-variant:normal;font-weight:normal;font-stretch:normal;text-align:start;line-height:125%;letter-spacing:0px;word-spacing:0px;text-anchor:start;fill:#000000;fill-opacity:1;stroke:none;font-family:Univers Else;-inkscape-font-specification:Univers Else" x="596.13965" y="840.37769" id="text4273-2"><tspan id="tspan4275-3" x="596.13965" y="840.37769">192.168.102.105</tspan></text>
    <path style="fill:none;stroke:#000000;stroke-width:1px;stroke-linecap:butt;stroke-linejoin:miter;stroke-opacity:1" d="m 443.2639,785.99464 0,-147.84997 0,0" id="path4339"/>
    <text xml:space="preserve" style="font-size:10px;font-style:normal;font-variant:normal;font-weight:normal;font-stretch:normal;text-align:start;line-height:125%;letter-spacing:0px;word-spacing:0px;text-anchor:start;fill:#000000;fill-opacity:1;stroke:none;font-family:Univers Else;-inkscape-font-specification:Univers Else" x="552.07294" y="549.3045" id="text4273-8"><tspan id="tspan4275-5" x="552.07294" y="549.3045">192.168.1.222</tspan></text>
    <text xml:space="preserve" style="font-size:10px;font-style:normal;font-variant:normal;font-weight:normal;font-stretch:normal;text-align:start;line-height:125%;letter-spacing:0px;word-spacing:0px;text-anchor:start;fill:#000000;fill-opacity:1;stroke:none;font-family:Univers Else;-inkscape-font-specification:Univers Else" x="333.81497" y="597.37604" id="text4458"><tspan x="333.81497" y="597.37604" id="tspan4462">bridge</tspan><tspan x="333.81497" y="609.87604" id="tspan5100">DHCP</tspan></text>
    <path style="fill:none;stroke:#000000;stroke-width:1.25;stroke-linecap:butt;stroke-linejoin:miter;stroke-miterlimit:4;stroke-opacity:1;stroke-dasharray:none;marker-start:url(#Arrow1Mstart);marker-end:url(#Arrow1Mend)" d="m 331.06498,583.62601 35.5,0" id="path4464"/>
    <text xml:space="preserve" style="font-size:10px;font-style:normal;font-variant:normal;font-weight:normal;font-stretch:normal;text-align:start;line-height:125%;letter-spacing:0px;word-spacing:0px;text-anchor:start;fill:#000000;fill-opacity:1;stroke:none;font-family:Univers Else;-inkscape-font-specification:Univers Else" x="280.74481" y="736.91168" id="text4458-3"><tspan x="280.74481" y="736.91168" id="tspan4462-1">route</tspan><tspan x="280.74481" y="749.41168" id="tspan5100-2">DHCP</tspan></text>
    <text xml:space="preserve" style="font-size:10px;font-style:normal;font-variant:normal;font-weight:normal;font-stretch:normal;text-align:start;line-height:125%;letter-spacing:0px;word-spacing:0px;text-anchor:start;fill:#000000;fill-opacity:1;stroke:none;font-family:Univers Else;-inkscape-font-specification:Univers Else" x="330.61081" y="79.771988" id="text5126"><tspan id="tspan5128" x="330.61081" y="79.771988">google</tspan></text>
    <text xml:space="preserve" style="font-size:10px;font-style:normal;font-variant:normal;font-weight:normal;font-stretch:normal;text-align:start;line-height:125%;letter-spacing:0px;word-spacing:0px;text-anchor:start;fill:#000000;fill-opacity:1;stroke:none;font-family:Univers Else;-inkscape-font-specification:Univers Else" x="388.01764" y="101.53902" id="text5130"><tspan id="tspan5132" x="388.01764" y="101.53902">wikipedia</tspan></text>
    <text xml:space="preserve" style="font-size:10px;font-style:normal;font-variant:normal;font-weight:normal;font-stretch:normal;text-align:start;line-height:125%;letter-spacing:0px;word-spacing:0px;text-anchor:start;fill:#000000;fill-opacity:1;stroke:none;font-family:Univers Else;-inkscape-font-specification:Univers Else" x="228.07402" y="104.45576" id="text5134"><tspan id="tspan5136" x="228.07402" y="104.45576">github</tspan></text>
    <text xml:space="preserve" style="font-size:10px;font-style:normal;font-variant:normal;font-weight:normal;font-stretch:normal;text-align:start;line-height:125%;letter-spacing:0px;word-spacing:0px;text-anchor:start;fill:#000000;fill-opacity:1;stroke:none;font-family:Univers Else;-inkscape-font-specification:Univers Else" x="465.55673" y="91.676346" id="text5138"><tspan id="tspan5140" x="465.55673" y="91.676346">facebook</tspan></text>
    <text xml:space="preserve" style="font-size:10px;font-style:normal;font-variant:normal;font-weight:normal;font-stretch:normal;text-align:start;line-height:125%;letter-spacing:0px;word-spacing:0px;text-anchor:start;fill:#000000;fill-opacity:1;stroke:none;font-family:Univers Else;-inkscape-font-specification:Univers Else" x="545.06494" y="81.876053" id="text5142"><tspan id="tspan5144" x="545.06494" y="81.876053">oauth</tspan><tspan x="545.06494" y="94.376053" id="tspan5146">darknet</tspan></text>
    <text xml:space="preserve" style="font-size:10px;font-style:normal;font-variant:normal;font-weight:normal;font-stretch:normal;text-align:start;line-height:125%;letter-spacing:0px;word-spacing:0px;text-anchor:start;fill:#000000;fill-opacity:1;stroke:none;font-family:Univers Else;-inkscape-font-specification:Univers Else" x="526.81494" y="110.12605" id="text5148"><tspan id="tspan5150" x="526.81494" y="110.12605">twitter</tspan></text>
    <text xml:space="preserve" style="font-size:10px;font-style:normal;font-variant:normal;font-weight:normal;font-stretch:normal;text-align:start;line-height:125%;letter-spacing:0px;word-spacing:0px;text-anchor:start;fill:#000000;fill-opacity:1;stroke:none;font-family:Univers Else;-inkscape-font-specification:Univers Else" x="163.31499" y="97.876053" id="text5152"><tspan id="tspan5154" x="163.31499" y="97.876053">gitorious</tspan></text>
    <text xml:space="preserve" style="font-size:10px;font-style:normal;font-variant:normal;font-weight:normal;font-stretch:normal;text-align:start;line-height:125%;letter-spacing:0px;word-spacing:0px;text-anchor:start;fill:#000000;fill-opacity:1;stroke:none;font-family:Univers Else;-inkscape-font-specification:Univers Else" x="252.09084" y="169.03676" id="text3914-1"><tspan id="tspan3916-6" x="252.09084" y="169.03676">constantvzw.org</tspan><tspan x="252.09084" y="181.53676" id="tspan4223-2">domainepublic.net</tspan><tspan x="252.09084" y="194.03676" id="tspan4225-2">all2all.org (BE)</tspan></text>
    <g id="g3952-5-0" transform="translate(398.65174,-62.034881)">
      <text id="text3942-4-1" y="277.36218" x="33.5" style="font-size:10px;font-style:normal;font-variant:normal;font-weight:normal;font-stretch:normal;text-align:start;line-height:125%;letter-spacing:0px;word-spacing:0px;text-anchor:start;fill:#000000;fill-opacity:1;stroke:none;font-family:Univers Else;-inkscape-font-specification:Univers Else" xml:space="preserve"><tspan y="277.36218" x="33.5" id="tspan3944-5-0">€</tspan></text>
      <rect y="254.36218" x="23.5" height="40.5" width="27" id="rect3946-08-0" style="color:#000000;fill:none;stroke:#000000;stroke-width:1.25;stroke-linecap:butt;stroke-linejoin:miter;stroke-miterlimit:4;stroke-opacity:1;stroke-dasharray:none;stroke-dashoffset:0;marker:none;visibility:visible;display:inline;overflow:visible;enable-background:accumulate"/>
    </g>
    <g style="stroke:#000000" id="g2995-3" transform="matrix(0.13269793,0,0,0.13269793,211.47969,234.89596)">
      <g style="stroke-width:2.06920004" id="g3163-5" transform="matrix(2.8997,0,0,2.8997,306.67,-499.27)">
        <path id="path3165-6" style="color:#000000;fill:#ffffff" d="m 59.533,140.25 c -8.8553,-3.9849 -13.627,-7.5382 -26.114,-4.0176 0,0 -14.792,-16.436 -16.618,-37.071 l 41.271,13.879 c 0,0 4.9307,2.9219 9.6787,-2.374 4.748,-5.2959 6.9395,-14.975 18.81,-1.6436 l 18.039,11.35 c 5.2082,6.973 10.416,11.751 15.625,20.919 4.4122,6.3213 -2.5038,14.101 -9.4265,9.8139 -0.22834,6.464 -6.0328,7.5803 -11.105,3.6156 -0.46763,4.8467 -8.0035,5.1303 -11.105,1.4204 z"/>
        <g style="fill:none" id="g3167-7">
          <path id="path3169-9" d="M 111.23,151.77 99.344,134.59"/>
          <path id="path3171-8" d="M 99.618,154.62 92.4046,143.264"/>
        </g>
      </g>
      <path id="path3173-2" style="color:#000000;fill:#ffffff;stroke-width:6" d="m 728.28,-106.06 c 35.197,-24.713 47.179,-100.35 47.179,-100.35 -14.229,-3.7444 -133.3,36.695 -133.3,36.695 -3.7444,2.9955 -8.9865,-2.2466 -8.9865,-2.2466 -42.686,-51.672 -75.636,-10.484 -75.636,-10.484 l -14.977,35.946 c -7.5714,25.877 18.904,28.501 26.959,17.224 l 9.7353,-18.722 c 9.7353,-20.968 29.955,-2.2466 29.955,-2.2466 l 38.192,45.681 c 39.69,5.2421 80.878,-1.4978 80.878,-1.4978 z"/>
      <g style="stroke-width:2.06920004" id="g3175-2" transform="matrix(2.8997,0,0,2.8997,306.67,-499.27)">
        <path id="path3177-6" style="color:#000000;fill:#ffffff" d="m 71.344,136.31 c -2.282,0.058 -4.3852,3.0046 -4.6875,5 -0.01082,-0.01 -0.02029,-0.0215 -0.03125,-0.0312 -0.9708,-7.1275 -8.283,-2.6904 -6.9688,-0.5 0,3.3574 -0.5,11.625 -0.5,11.625 0.27378,3.642 5.1497,3.07 6.2812,1.1562 -0.0205,0.0833 -0.09375,0.375 -0.09375,0.375 -1.0924,3.4008 4.8889,4.9414 6.3125,2.0625 -0.01757,0.0378 -0.125,0.28125 -0.125,0.28125 -3.8739,7.4895 5.6875,5.1562 5.6875,5.1562 0.13537,-0.11603 0.24388,-0.25717 0.375,-0.375 l -0.625,0.875 c 0,0 -0.7672,5.4228 4.6562,4.9062 5.4234,-0.5166 4.6362,-2.8348 7.2188,-8 2.8678,-1.7207 0.1934,-8.889 -5.1562,-5.9375 l -0.687,0.93 c 2.9842,-6.1759 2.75,-12.031 2.75,-12.031 -0.62951,-3.777 -2.58,-5.1537 -4.625,-5.125 -2.3798,0.0334 -4.8743,1.9745 -5.5625,4.1875 -0.04448,-0.12457 -0.10422,-0.25381 -0.15625,-0.375 -1.1574,-3.1533 -2.6442,-4.2236 -4.0625,-4.1875 z"/>
        <g style="fill:none" id="g3179-7">
          <path id="path3181-4" d="m 76.882,161.62 c 3.561,-1.9175 7.3047,-10.592 7.3047,-10.592"/>
          <path id="path3183-0" d="m 70.125,157.69 c 5.7524,-6.209 5.3872,-17.623 5.3872,-17.623"/>
          <path id="path3185-5" d="m 64.646,154.68 c 3.1958,-4.6567 1.8262,-15.066 1.8262,-15.066"/>
        </g>
      </g>
    </g>
    <text xml:space="preserve" style="font-size:10px;font-style:normal;font-variant:normal;font-weight:normal;font-stretch:normal;text-align:start;line-height:125%;letter-spacing:0px;word-spacing:0px;text-anchor:start;fill:#000000;fill-opacity:1;stroke:none;font-family:Univers Else;-inkscape-font-specification:Univers Else" x="403.50446" y="174.123" id="text4138-4"><tspan id="tspan4140-1" x="403.50446" y="174.123">relearn.be</tspan><tspan x="403.50446" y="186.623" id="tspan4227-1">cloudvps.com (NL)</tspan></text>
    <text xml:space="preserve" style="font-size:10px;font-style:normal;font-variant:normal;font-weight:normal;font-stretch:normal;text-align:start;line-height:125%;letter-spacing:0px;word-spacing:0px;text-anchor:start;fill:#000000;fill-opacity:1;stroke:none;font-family:Univers Else;-inkscape-font-specification:Univers Else" x="542.48016" y="226.09206" id="text3159-2"><tspan id="tspan3161-6" x="542.48016" y="226.09206">etherpad-lite</tspan></text>
    <text xml:space="preserve" style="font-size:10px;font-style:normal;font-variant:normal;font-weight:normal;font-stretch:normal;text-align:start;line-height:125%;letter-spacing:0px;word-spacing:0px;text-anchor:start;fill:#000000;fill-opacity:1;stroke:none;font-family:Univers Else;-inkscape-font-specification:Univers Else" x="500.57666" y="246.06667" id="text3163-6"><tspan id="tspan3165-2" x="500.57666" y="246.06667">ethertoff</tspan></text>
    <text xml:space="preserve" style="font-size:10px;font-style:normal;font-variant:normal;font-weight:normal;font-stretch:normal;text-align:start;line-height:125%;letter-spacing:0px;word-spacing:0px;text-anchor:start;fill:#000000;fill-opacity:1;stroke:none;font-family:Univers Else;-inkscape-font-specification:Univers Else" x="458.90906" y="221.59206" id="text3167-0"><tspan id="tspan3169-2" x="458.90906" y="221.59206">apache/nginx</tspan></text>
    <text xml:space="preserve" style="font-size:10px;font-style:normal;font-variant:normal;font-weight:normal;font-stretch:normal;text-align:start;line-height:125%;letter-spacing:0px;word-spacing:0px;text-anchor:start;fill:#000000;fill-opacity:1;stroke:none;font-family:Univers Else;-inkscape-font-specification:Univers Else" x="516.40912" y="203.59206" id="text3171-4"><tspan id="tspan3173-4" x="516.40912" y="203.59206">django</tspan></text>
    <g id="g3550" transform="translate(-6.1112464,-16.107711)">
      <path id="path3540" d="m 256,179.36218 c 1.22316,3.00625 1,5.88748 1,9 0,0.33334 -0.2357,0.7643 0,1 0.0322,0.0322 2.75747,0 3,0 2.66667,0 5.33333,0 8,0 0.45036,0 2.69567,0.15217 3,0 0.42164,-0.21082 0.57836,-0.78918 1,-1 0.26294,-0.13147 3.47708,0 4,0 3.33333,0 6.66667,0 10,0 9.66667,0 19.33333,0 29,0 2,0 4,0 6,0 0.33333,0 0.66667,0 1,0 0.33333,0 0.70186,-0.14907 1,0 0.42164,0.21082 0.57836,0.78918 1,1 0.29814,0.14907 0.66667,0 1,0 1.66667,0 3.33333,0 5,0 0.33333,0 0.66667,0 1,0 0.33333,0 0.70186,-0.14907 1,0 0.42164,0.21082 0.57836,0.78918 1,1 0.26294,0.13147 3.47708,0 4,0 2.66667,0 5.33333,0 8,0 1.66667,0 3.33333,0 5,0 0.33333,0 0.7643,0.2357 1,0 0.2357,-0.2357 0,-0.66666 0,-1 0,-0.33333 0.14907,-0.70185 0,-1 -0.21082,-0.42163 -0.78918,-0.57836 -1,-1 -0.12928,-0.25855 0,-5.2912 0,-6 0,-2.33333 0,-4.66666 0,-7 0,-0.33333 0.2357,-0.7643 0,-1 -0.2357,-0.2357 -0.66667,0 -1,0 -1.66667,0 -3.33333,0 -5,0 -0.33333,0 -0.66667,0 -1,0 -0.33333,0 -0.7643,-0.2357 -1,0 -0.2357,0.2357 0.2357,0.7643 0,1 -0.0322,0.0322 -2.75747,0 -3,0 -5.33333,0 -10.66667,0 -16,0 -3.66667,0 -7.33333,0 -11,0 -0.52292,0 -3.73706,-0.13147 -4,0 -0.42164,0.21082 -0.57836,0.78918 -1,1 -0.26294,0.13147 -3.47708,0 -4,0 -3,0 -6,0 -9,0 -6.33333,0 -12.66667,0 -19,0 -2,0 -4,0 -6,0 -0.33333,0 -0.66667,0 -1,0 -0.33333,0 -0.70186,0.14907 -1,0 -0.42164,-0.21082 -0.57836,-0.78918 -1,-1 -0.36163,-0.18081 -4.30446,0 -5,0 -0.36724,0 -3.95976,0.0402 -4,0 -0.2357,-0.2357 0.2357,-0.7643 0,-1 -0.2357,-0.2357 -0.66667,0 -1,0 -0.33333,0 -0.7643,-0.2357 -1,0 -0.2357,0.2357 -0.0548,0.6712 0,1 0.27942,1.67655 0.66667,3.33334 1,5 z" style="fill:none;stroke:#000000;stroke-width:1px;stroke-linecap:butt;stroke-linejoin:miter;stroke-opacity:1"/>
      <path id="path3542" d="m 255,172.36218 c 1.33333,-0.33333 3.66667,-2.33333 4,-1 0.33333,1.33334 -4.97183,1.97183 -4,1 1.2693,-1.26929 3.39445,-1.19722 5,-2 0.42164,-0.21082 0.57836,-0.78918 1,-1 0.59628,-0.29814 1.40372,0.29815 2,0 0.42164,-0.21082 0.57836,-0.78918 1,-1 0.29814,-0.14907 0.70186,0.14907 1,0 0.42164,-0.21082 0.57836,-0.78918 1,-1 0.29814,-0.14907 0.70186,0.14907 1,0 0.42164,-0.21082 0.57836,-0.78918 1,-1 0.39649,-0.19824 2.79556,0.20444 3,0 0.2357,-0.2357 -0.2357,-0.7643 0,-1 0.4714,-0.4714 1.5286,0.47141 2,0 0.2357,-0.2357 -0.2357,-0.7643 0,-1 0.4714,-0.4714 1.5286,0.47141 2,0 0.2357,-0.2357 -0.2357,-0.7643 0,-1 0.2357,-0.2357 0.70186,0.14907 1,0 0.42164,-0.21082 0.57836,-0.78918 1,-1 0.29814,-0.14907 0.7643,0.2357 1,0 0.2357,-0.2357 -0.2357,-0.7643 0,-1 0.4714,-0.4714 1.5286,0.47141 2,0 0.2357,-0.2357 -0.2357,-0.7643 0,-1 0.4714,-0.4714 1.5286,0.47141 2,0 1.33333,-1.33333 -1.66667,-1 1,-1 2.33333,0.66667 4.64575,1.41144 7,2 0.86922,0.21731 3.01122,0 4,0 2.33333,0 4.66667,0 7,0 0.69554,0 4.63837,0.18082 5,0 0.42164,-0.21082 0.55279,-0.85093 1,-1 0.56886,-0.18962 4.05816,0 5,0 3.33333,0 6.66667,0 10,0 0.52292,0 3.73706,0.13147 4,0 0.42164,-0.21082 0.57836,-0.78918 1,-1 0.11162,-0.0558 4.88838,-0.0558 5,0 0.42164,0.21082 0.57836,0.78918 1,1 0.30433,0.15217 2.54964,0 3,0 2,0 4,0 6,0" style="fill:none;stroke:#000000;stroke-width:1px;stroke-linecap:butt;stroke-linejoin:miter;stroke-opacity:1"/>
      <path id="path3544" d="m 337,162.36218 c 1.33333,1 2.57085,2.14251 4,3 0.28583,0.1715 0.70186,-0.14907 1,0 0.84327,0.42164 1.15673,1.57837 2,2 0.29814,0.14907 0.70186,-0.14907 1,0 0.42164,0.21082 0.57836,0.78918 1,1 0.29814,0.14907 0.7643,-0.2357 1,0 0.2357,0.2357 -0.2357,0.7643 0,1 0.2357,0.2357 0.70186,-0.14907 1,0 2.4714,1.2357 -0.34518,1 2,1" style="fill:none;stroke:#000000;stroke-width:1px;stroke-linecap:butt;stroke-linejoin:miter;stroke-opacity:1"/>
    </g>
    <g id="g3550-2" transform="translate(143.41119,-12.093471)">
      <path id="path3540-8" d="m 256,179.36218 c 1.22316,3.00625 1,5.88748 1,9 0,0.33334 -0.2357,0.7643 0,1 0.0322,0.0322 2.75747,0 3,0 2.66667,0 5.33333,0 8,0 0.45036,0 2.69567,0.15217 3,0 0.42164,-0.21082 0.57836,-0.78918 1,-1 0.26294,-0.13147 3.47708,0 4,0 3.33333,0 6.66667,0 10,0 9.66667,0 19.33333,0 29,0 2,0 4,0 6,0 0.33333,0 0.66667,0 1,0 0.33333,0 0.70186,-0.14907 1,0 0.42164,0.21082 0.57836,0.78918 1,1 0.29814,0.14907 0.66667,0 1,0 1.66667,0 3.33333,0 5,0 0.33333,0 0.66667,0 1,0 0.33333,0 0.70186,-0.14907 1,0 0.42164,0.21082 0.57836,0.78918 1,1 0.26294,0.13147 3.47708,0 4,0 2.66667,0 5.33333,0 8,0 1.66667,0 3.33333,0 5,0 0.33333,0 0.7643,0.2357 1,0 0.2357,-0.2357 0,-0.66666 0,-1 0,-0.33333 0.14907,-0.70185 0,-1 -0.21082,-0.42163 -0.78918,-0.57836 -1,-1 -0.12928,-0.25855 0,-5.2912 0,-6 0,-2.33333 0,-4.66666 0,-7 0,-0.33333 0.2357,-0.7643 0,-1 -0.2357,-0.2357 -0.66667,0 -1,0 -1.66667,0 -3.33333,0 -5,0 -0.33333,0 -0.66667,0 -1,0 -0.33333,0 -0.7643,-0.2357 -1,0 -0.2357,0.2357 0.2357,0.7643 0,1 -0.0322,0.0322 -2.75747,0 -3,0 -5.33333,0 -10.66667,0 -16,0 -3.66667,0 -7.33333,0 -11,0 -0.52292,0 -3.73706,-0.13147 -4,0 -0.42164,0.21082 -0.57836,0.78918 -1,1 -0.26294,0.13147 -3.47708,0 -4,0 -3,0 -6,0 -9,0 -6.33333,0 -12.66667,0 -19,0 -2,0 -4,0 -6,0 -0.33333,0 -0.66667,0 -1,0 -0.33333,0 -0.70186,0.14907 -1,0 -0.42164,-0.21082 -0.57836,-0.78918 -1,-1 -0.36163,-0.18081 -4.30446,0 -5,0 -0.36724,0 -3.95976,0.0402 -4,0 -0.2357,-0.2357 0.2357,-0.7643 0,-1 -0.2357,-0.2357 -0.66667,0 -1,0 -0.33333,0 -0.7643,-0.2357 -1,0 -0.2357,0.2357 -0.0548,0.6712 0,1 0.27942,1.67655 0.66667,3.33334 1,5 z" style="fill:none;stroke:#000000;stroke-width:1px;stroke-linecap:butt;stroke-linejoin:miter;stroke-opacity:1"/>
      <path id="path3542-0" d="m 255,172.36218 c 1.33333,-0.33333 3.66667,-2.33333 4,-1 0.33333,1.33334 -4.97183,1.97183 -4,1 1.2693,-1.26929 3.39445,-1.19722 5,-2 0.42164,-0.21082 0.57836,-0.78918 1,-1 0.59628,-0.29814 1.40372,0.29815 2,0 0.42164,-0.21082 0.57836,-0.78918 1,-1 0.29814,-0.14907 0.70186,0.14907 1,0 0.42164,-0.21082 0.57836,-0.78918 1,-1 0.29814,-0.14907 0.70186,0.14907 1,0 0.42164,-0.21082 0.57836,-0.78918 1,-1 0.39649,-0.19824 2.79556,0.20444 3,0 0.2357,-0.2357 -0.2357,-0.7643 0,-1 0.4714,-0.4714 1.5286,0.47141 2,0 0.2357,-0.2357 -0.2357,-0.7643 0,-1 0.4714,-0.4714 1.5286,0.47141 2,0 0.2357,-0.2357 -0.2357,-0.7643 0,-1 0.2357,-0.2357 0.70186,0.14907 1,0 0.42164,-0.21082 0.57836,-0.78918 1,-1 0.29814,-0.14907 0.7643,0.2357 1,0 0.2357,-0.2357 -0.2357,-0.7643 0,-1 0.4714,-0.4714 1.5286,0.47141 2,0 0.2357,-0.2357 -0.2357,-0.7643 0,-1 0.4714,-0.4714 1.5286,0.47141 2,0 1.33333,-1.33333 -1.66667,-1 1,-1 2.33333,0.66667 4.64575,1.41144 7,2 0.86922,0.21731 3.01122,0 4,0 2.33333,0 4.66667,0 7,0 0.69554,0 4.63837,0.18082 5,0 0.42164,-0.21082 0.55279,-0.85093 1,-1 0.56886,-0.18962 4.05816,0 5,0 3.33333,0 6.66667,0 10,0 0.52292,0 3.73706,0.13147 4,0 0.42164,-0.21082 0.57836,-0.78918 1,-1 0.11162,-0.0558 4.88838,-0.0558 5,0 0.42164,0.21082 0.57836,0.78918 1,1 0.30433,0.15217 2.54964,0 3,0 2,0 4,0 6,0" style="fill:none;stroke:#000000;stroke-width:1px;stroke-linecap:butt;stroke-linejoin:miter;stroke-opacity:1"/>
      <path id="path3544-1" d="m 337,162.36218 c 1.33333,1 2.57085,2.14251 4,3 0.28583,0.1715 0.70186,-0.14907 1,0 0.84327,0.42164 1.15673,1.57837 2,2 0.29814,0.14907 0.70186,-0.14907 1,0 0.42164,0.21082 0.57836,0.78918 1,1 0.29814,0.14907 0.7643,-0.2357 1,0 0.2357,0.2357 -0.2357,0.7643 0,1 0.2357,0.2357 0.70186,-0.14907 1,0 2.4714,1.2357 -0.34518,1 2,1" style="fill:none;stroke:#000000;stroke-width:1px;stroke-linecap:butt;stroke-linejoin:miter;stroke-opacity:1"/>
    </g>
    <path style="fill:none;stroke:#000000;stroke-width:1px;stroke-linecap:butt;stroke-linejoin:miter;stroke-opacity:1" d="m 512.00819,229.63506 c -0.57111,-2.85556 -0.50507,-1.66691 -0.50507,-3.53553 0,-0.33672 -0.066,-0.67997 0,-1.01015 0.10441,-0.52206 0.41755,-0.99008 0.50507,-1.51523 0.083,-0.49821 -0.083,-1.01703 0,-1.51523 0.0875,-0.52515 0.41755,-0.99008 0.50508,-1.51523 0.083,-0.4982 -0.0714,-1.01523 0,-1.51523 0.24471,-1.71299 0.97048,-3.4165 1.51523,-5.05076 1.67513,-5.02538 -0.47619,1.19048 1.01015,-2.52538 0.19773,-0.49432 0.23116,-1.0587 0.50508,-1.51523 0.245,-0.40833 0.72444,-0.6292 1.01015,-1.01015 1.1062,-1.47494 -0.25212,-0.6948 1.51523,-2.02031 0.30117,-0.22588 0.69692,-0.29625 1.01015,-0.50508 0.19811,-0.13207 0.30697,-0.373 0.50508,-0.50507 0.32187,-0.21458 2.70284,-1.43333 3.03046,-1.51523 0.38409,-0.096 2.10243,0 2.52538,0 0.17206,0 1.74695,-0.0911 2.0203,0 0.35714,0.11905 0.65301,0.38603 1.01015,0.50508 1.50353,0.50117 -1.03631,-1.19596 1.51523,0.50507 0.19811,0.13207 0.29212,0.3986 0.50508,0.50508 0.15058,0.0753 0.33672,0 0.50508,0 0.33671,0.16836 0.69691,0.29625 1.01015,0.50507 0.19811,0.13208 0.33672,0.33672 0.50507,0.50508 0.16836,0.16836 0.37301,0.30697 0.50508,0.50508 0.20882,0.31323 0.23888,0.74395 0.50508,1.01015 1.22673,1.22673 0.74166,-0.15019 1.51523,1.01015 0.20882,0.31324 0.29625,0.69692 0.50507,1.01016 0.49547,0.7432 1.52484,1.27709 2.02031,2.0203 2.47809,2.98501 -0.34362,-0.18215 0.50507,1.51523 0.10648,0.21296 0.42979,0.2792 0.50508,0.50508 0.0818,0.24538 0,3.01987 0,3.53553 0,1.01015 0,2.0203 0,3.03046 0,0.33671 0,0.67343 0,1.01015 0,0.16836 0.0532,0.34536 0,0.50508 -0.11905,0.35714 -0.38603,0.65301 -0.50508,1.01015 -0.10648,0.31944 0.10648,0.69071 0,1.01015 -0.11904,0.35714 -0.38603,0.65301 -0.50507,1.01015 -0.10648,0.31944 0.15058,0.70899 0,1.01016 -0.10648,0.21295 -0.3986,0.29211 -0.50508,0.50507 -0.10013,0.20026 0.10326,1.41197 0,1.51523 -0.11905,0.11905 -0.38603,-0.11905 -0.50508,0 -0.15639,0.1564 0.1564,2.36899 0,2.52538 -0.11904,0.11905 -0.38602,-0.11905 -0.50507,0 -0.25254,0.25254 0.25254,1.26269 0,1.51523 -0.11905,0.11905 -0.33672,0 -0.50508,0 -0.16836,0 -0.38603,0.11905 -0.50507,0 -0.11905,-0.11905 0.11904,-0.38603 0,-0.50508 -0.11905,-0.11904 -0.38603,0.11905 -0.50508,0 -0.11905,-0.11904 0.11905,-0.38602 0,-0.50507 -0.11905,-0.11905 -0.38603,0.11905 -0.50508,0 -0.11904,-0.11905 0.0753,-0.35449 0,-0.50508 -0.10648,-0.21296 -0.39859,-0.29212 -0.50507,-0.50507 -0.0753,-0.15059 0.11904,-0.38603 0,-0.50508 -0.11905,-0.11905 -0.38603,0.11905 -0.50508,0 -0.11905,-0.11905 -0.16836,-0.50508 0,-0.50508 0.0886,0 -0.092,1.83639 0,2.02031 0.10648,0.21296 0.3986,0.29212 0.50508,0.50507 0.13475,0.26951 -0.13475,0.74066 0,1.01016 0.10648,0.21296 0.39859,0.29211 0.50507,0.50507 0.0753,0.15059 -0.11904,0.38603 0,0.50508 0.11905,0.11905 0.38603,0.11905 0.50508,0 0.11905,-0.11905 -0.11905,-0.38603 0,-0.50508 0.11905,-0.11904 0.38603,0.11905 0.50508,0 0.11904,-0.11904 -0.0753,-0.35449 0,-0.50507 0.21295,-0.42592 0.79719,-0.58424 1.01015,-1.01016 0.0753,-0.15058 -0.11905,-0.38602 0,-0.50507 0.11905,-0.11905 0.35449,0.0753 0.50507,0 0.21296,-0.10648 0.33672,-0.33672 0.50508,-0.50508 0.16836,-0.16836 0.3986,-0.29212 0.50508,-0.50507 0.0753,-0.15059 -0.11905,-0.38603 0,-0.50508 0.11904,-0.11905 0.33671,0 0.50507,0" id="path4527"/>
    <path style="fill:none;stroke:#000000;stroke-width:1px;stroke-linecap:butt;stroke-linejoin:miter;stroke-opacity:1" d="m 508.97774,227.61476 c -0.77583,1.72913 1.0762,1.64733 1.51522,2.52538 0.0753,0.15058 -0.0753,0.35449 0,0.50508 0.10648,0.21295 0.3986,0.29211 0.50508,0.50507 0.0753,0.15059 -0.11905,0.38603 0,0.50508 0.11905,0.11905 0.38603,-0.11905 0.50508,0 0.11904,0.11905 0.16836,0.50507 0,0.50507 -0.16836,0 -0.0753,-0.35449 0,-0.50507 0.10648,-0.21296 0.39859,-0.29212 0.50507,-0.50508 0.0753,-0.15058 -0.0753,-0.35449 0,-0.50507 0.10648,-0.21296 0.3986,-0.29212 0.50508,-0.50508 0.0753,-0.15058 -0.0753,-0.35449 0,-0.50508 0.10648,-0.21296 0.3986,-0.29211 0.50508,-0.50507 0.0753,-0.15059 -0.0753,-0.35449 0,-0.50508 0.0671,-0.1341 1.38112,-1.44818 1.51522,-1.51523 0.15059,-0.0753 0.38603,0.11905 0.50508,0 0.11905,-0.11905 0,-0.33672 0,-0.50507" id="path4529"/>
    <path style="fill:none;stroke:#000000;stroke-width:1px;stroke-linecap:butt;stroke-linejoin:miter;stroke-opacity:1" d="m 74.900774,923.44961 c -5.96285,-1.9257 1.49071,-7.0185 0,-10 -0.42164,-0.8432 -1.57836,-1.1567 -2,-2 -0.22413,-0.4482 0,-7.5247 0,-8 0,-5.3333 0,-10.6666 0,-16 0,-3.3333 0.65372,-6.7314 0,-10 -0.29235,-1.4617 -1.70765,-2.5382 -2,-4 -0.39223,-1.9611 0,-4 0,-6 0,-4.6666 0,-9.3333 0,-14 0,-2 0.3288,-4.0272 0,-6 -0.34658,-2.0795 -1.65342,-3.9205 -2,-6 -0.3288,-1.9728 0,-4 0,-6 0,-5.3333 0,-10.6666 0,-16 0,-13.3333 0,-26.6666 0,-40 0,-6 0,-12 0,-18 0,-2.6666 0.37712,-5.3601 0,-8 -0.29814,-2.087 -1.65342,-3.9205 -2,-6 -0.548,-3.288 0,-6.6666 0,-10 0,-6 0,-12 0,-18 0,-1.3333 0.26149,-2.6925 0,-4 -0.41345,-2.0672 -1.58655,-3.9327 -2,-6 -0.65372,-3.2686 0.548,-6.712 0,-10 -0.34658,-2.0795 -1.65342,-3.9205 -2,-6 -0.90471,-5.4283 0.90472,-12.5717 0,-18 -0.34658,-2.0795 -1.65342,-3.9205 -2,-6 -0.3288,-1.9728 0,-4 0,-6 0,-2 0,-4 0,-6 0,-4.0937 0,-7.9062 0,-12 0,-1.3333 -0.26149,-2.6925 0,-4 0.41345,-2.0672 1.58655,-3.9327 2,-6 0.26149,-1.3074 0,-2.6666 0,-4 0,-2.6666 0,-5.3333 0,-8 0,-6.6666 0,-13.3333 0,-20 0,-5.5462 -0.29814,3.1926 2,-6 0.4066,-1.6264 0,-9.9063 0,-12 0,-2 0,-4 0,-6 0,-0.6666 0.4714,-1.5286 0,-2 -0.4714,-0.4714 -1.5286,0.4714 -2,0 -0.4714,-0.4714 -0.4714,-1.5286 0,-2 0.4714,-0.4714 1.40372,0.2982 2,0 0.84327,-0.4216 1.15673,-1.5783 2,-2 0.59629,-0.2981 1.5286,0.4714 2,0 0.4714,-0.4714 -0.29814,-1.4037 0,-2 4.16176,-8.3235 -0.13807,2.1381 4,-2 0.4714,-0.4714 -0.29814,-1.4037 0,-2 0.42164,-0.8432 1.33333,-1.3333 2,-2 0.66667,-0.6666 1.33333,-1.3333 2,-2 2.66667,-2.6666 5.33333,-5.3333 8,-8 2,-2 4,-4 6,-6 0.66667,-0.6666 1.47702,-1.2155 2,-2 0.8269,-1.2403 0.94591,-2.9459 2,-4 1.05409,-1.0541 2.94591,-0.9459 4,-2 1.05409,-1.0541 1.105566,-2.8074 1.999996,-4 2.8,-3.7333 7.2,-6.2666 10,-10 0.89443,-1.19255 1.1731,-2.75963 2,-3.99998 1.96196,-2.94294 6.03804,-5.05705 8,-8 0.8269,-1.24034 1.1731,-2.75965 2,-4 1.04595,-1.56893 2.95405,-2.43107 4,-4 0.8269,-1.24034 1.1731,-2.75965 2,-4 0.52298,-0.78446 1.33333,-1.33333 2,-2 0.66667,-0.66666 1.15673,-1.57836 2,-2 0.59628,-0.29814 1.5286,0.47141 2,0 0.4714,-0.4714 -0.29814,-1.40371 0,-2 1.2,-2.4 4.8,-3.6 6,-6 0.29814,-0.59628 -0.4714,-1.52859 0,-2 0.4714,-0.4714 1.5286,0.47141 2,0 0.4714,-0.4714 -0.4714,-1.52859 0,-2 0.4714,-0.4714 1.5286,0.47141 2,0 0.4714,-0.4714 -0.4714,-1.52859 0,-2 0.94281,-0.94281 3.05719,0.94281 4,0 0.94281,-0.94281 -0.94281,-3.05719 0,-4 0.4714,-0.4714 1.5286,0.47141 2,0 0.4714,-0.4714 -0.29814,-1.40371 0,-2 0.42164,-0.84327 1.57836,-1.15672 2,-2 0.29814,-0.59628 -0.4714,-1.52859 0,-2 0.94281,-0.94281 3.05719,0.94281 4,0 0.4714,-0.4714 -0.4714,-1.52859 0,-2 0.0643,-0.0643 5.51495,0 6,0 4.69036,0 -0.94281,0.47141 4,-2 1.26174,-0.63087 8.73826,0.63087 10,0 0.84327,-0.42163 1.15673,-1.57836 2,-2 1.25704,-0.62852 6.74296,0.62853 8,0 0.84327,-0.42163 1.15673,-1.57836 2,-2 1.6,-0.8 4.4,0.8 6,0 0.84327,-0.42163 1.15673,-1.57836 2,-2 1.26863,-0.63431 8.70075,0.64963 10,0 0.84327,-0.42163 1.15673,-1.57836 2,-2 0.52588,-0.26294 6.95416,0 8,0 6,0 12,0 18,0 0.943,0 9.90936,-0.0906 10,0 0.4714,0.47141 -0.4714,1.5286 0,2 0.0906,0.0906 9.057,0 10,0" id="path5084"/>
    <path style="fill:none;stroke:#000000;stroke-width:1px;stroke-linecap:butt;stroke-linejoin:miter;stroke-opacity:1" d="m 384.90077,465.44963 c 4.66667,0 9.33333,0 14,0 1.33333,0 2.70648,0.32338 4,0 1.4462,-0.36155 2.5538,-1.63845 4,-2 1.57323,-0.39331 9.92015,0 12,0 8.66667,0 17.33333,0 26,0 2.14567,0 12.678,0.44067 14,0 1.41421,-0.4714 2.58579,-1.52859 4,-2 1.15855,-0.38618 6.26683,0 8,0 5.33333,0 10.66667,0 16,0 5.33333,0 10.66667,0 16,0 0.66667,0 1.33333,0 2,0 0.66667,0 1.5286,-0.4714 2,0 0.4714,0.47141 -0.4714,1.5286 0,2 0.0805,0.0805 7.26553,0 8,0 4.69036,0 -0.94281,-0.4714 4,2 0.59628,0.29815 1.33333,0 2,0 0.66667,0 1.33333,0 2,0 2.24588,0 12.57019,-0.4766 14,0 1.41421,0.47141 2.58579,1.5286 4,2 1.42981,0.47661 11.75411,0 14,0 1.33333,0 2.73509,-0.42163 4,0 1.41421,0.47141 2.58579,1.5286 4,2 1.09328,0.36443 12.43663,0 14,0 5.33333,0 10.66667,0 16,0 0.47526,0 7.55174,0.22413 8,0 0.84327,-0.42163 1.10557,-1.70185 2,-2 1.3606,-0.45353 8.93952,0.53024 10,0 0.84327,-0.42163 1.05719,-2 2,-2 0.66667,0 -0.66667,2 0,2 0.78105,0 2.25245,-3.74754 4,-2 0.4714,0.47141 -0.4714,1.5286 0,2 0.4714,0.47141 1.5286,-0.4714 2,0 0.4714,0.47141 -0.29814,1.40372 0,2 0.26853,0.53707 3.73147,3.46294 4,4 0.29814,0.59629 -0.29814,1.40372 0,2 0.88634,1.77268 4.78625,4.17937 6,6 0.8269,1.24035 1.1731,2.75966 2,4 1.04595,1.56893 2.95405,2.43107 4,4 0.8269,1.24035 0.94591,2.94591 2,4 1.05409,1.0541 2.94591,0.94591 4,2 1.05409,1.0541 1.10557,2.80743 2,4 1.13137,1.5085 2.86863,2.49151 4,4 0.89443,1.19257 0.94591,2.94591 2,4 1.05409,1.0541 2.80743,1.10558 4,2 14.38595,10.78947 -4.22076,-2.22076 6,8 1.05409,1.0541 2.75965,1.1731 4,2 3.05324,2.0355 2.94676,5.96451 6,7.99998 1.24035,0.8269 2.75965,1.1731 4,2 1.56893,1.046 2.66667,2.6667 4,4 2.66667,2.6667 5.33333,5.3334 8,8 1.05293,1.053 4.93183,5.4659 6,6 0.59628,0.2982 1.5286,-0.4714 2,0 0.4714,0.4714 -0.29814,1.4037 0,2 0.42164,0.8433 1.57836,1.1568 2,2 0.29814,0.5963 -0.4714,1.5286 0,2 0.4714,0.4714 2,-0.6666 2,0 0,0.6667 -1.5286,0.4714 -2,0 -0.4714,-0.4714 0.4714,-1.5286 0,-2 -0.4714,-0.4714 -1.33333,0 -2,0 -0.66667,0 -1.5286,-0.4714 -2,0 -0.4714,0.4714 0.4714,1.5286 0,2 -0.4714,0.4714 -1.5286,-0.4714 -2,0 -0.4714,0.4714 0,1.3334 0,2 0,0.6667 0,1.3334 0,2 0,4.6667 0,9.3334 0,14 0,2 0.48507,4.0597 0,6 -0.36155,1.4462 -1.63845,2.5538 -2,4 -0.32338,1.2936 0,2.6667 0,4 0,1.3334 -0.32338,2.7065 0,4 0.36155,1.4462 1.63845,2.5538 2,4 0.32338,1.2936 0,2.6667 0,4 0,2 0,4 0,6 0,4.6667 0,9.3334 0,14 0,7.3334 0,14.6667 0,22 0,2 0,4 0,6 0,2 0.3288,4.0272 0,6 -0.34658,2.0795 -1.65342,3.9205 -2,6 -0.3288,1.9728 0,4 0,6 0,4 0,8 0,12 0,14.6667 0,29.3334 0,44 0,39.3334 0,78.6667 0,118 0,34.6667 0,69.3334 0,104 0,3.3334 0,6.6667 0,10 0,0.6667 0,1.3334 0,2 0,0.6667 -0.29814,1.4037 0,2 0.42164,0.8433 1.57836,1.1568 2,2 0.59628,1.1926 -0.59629,2.8075 0,4 0.42164,0.8433 1.57836,1.1568 2,2 0.59628,1.1926 -0.59629,2.8074 0,4 2.4714,4.9428 2,-0.6904 2,4 0,0.6666 0.66667,2 0,2 -1.33333,0 0.94281,-3.0572 0,-4 -0.4714,-0.4714 -1.33333,0 -2,0 -0.66667,0 -1.33333,0 -2,0" id="path5086"/>
    <path style="fill:none;stroke:#000000;stroke-width:1px;stroke-linecap:butt;stroke-linejoin:miter;stroke-opacity:1" d="m 682.90077,971.44961 c -2.66667,0 -8,2.6666 -8,0 0,-2.6667 10.66667,0 8,0 -4.66667,0 -9.33333,0 -14,0 -1.31422,0 -4.8716,0.3761 -6,0 -1.41421,-0.4714 -2.58579,-1.5286 -4,-2 -1.89737,-0.6325 -4.10263,0.6324 -6,0 -0.89443,-0.2982 -1.10557,-1.7019 -2,-2 -1.26491,-0.4217 -2.70648,0.3234 -4,0 -1.4462,-0.3616 -2.58579,-1.5286 -4,-2 -0.63246,-0.2108 -1.36754,0.2108 -2,0 -1.41421,-0.4714 -2.53824,-1.7076 -4,-2 -1.96116,-0.3922 -4.03884,0.3923 -6,0 -1.46176,-0.2923 -2.5538,-1.6384 -4,-2 -1.29352,-0.3234 -2.69256,0.2615 -4,0 -2.06725,-0.4134 -3.93275,-1.5865 -6,-2 -1.30744,-0.2615 -2.69256,0.2615 -4,0 -2.06725,-0.4134 -3.9205,-1.6534 -6,-2 -1.97279,-0.3288 -4.02721,0.3288 -6,0 -2.0795,-0.3466 -3.9205,-1.6534 -6,-2 -1.97279,-0.3288 -4.02721,0.3288 -6,0 -2.0795,-0.3466 -3.9205,-1.6534 -6,-2 -1.97279,-0.3288 -4.0201,0.2829 -6,0 -2.72111,-0.3887 -5.27889,-1.6112 -8,-2 -4.61976,-0.6599 -9.38024,0.66 -14,0 -2.087,-0.2981 -3.913,-1.7018 -6,-2 -2.63987,-0.3771 -5.33333,0 -8,0 -5.33333,0 -10.66667,0 -16,0 -8,0 -16,0 -24,0 -2.66667,0 -5.33333,0 -8,0 -3.33333,0 -6.68705,-0.3681 -10,0 -2.73193,0.3036 -5.27249,1.6591 -8,2 -2.64607,0.3308 -5.33333,0 -8,0 -8.66667,0 -17.33333,0 -26,0 -3.33333,0 -6.68705,-0.3681 -10,0 -2.73193,0.3036 -5.27249,1.6591 -8,2 -2.64607,0.3308 -5.33333,0 -8,0 -3.33333,0 -6.66667,0 -10,0 -12,0 -24,0 -36,0 -8.66667,0 -17.33333,0 -26,0 -2.66667,0 -5.35393,0.3308 -8,0 -2.72751,-0.3409 -5.26808,-1.6964 -8,-2 -3.31295,-0.3681 -6.66667,0 -10,0 -8,0 -16,0 -24,0 -2.66667,0 -5.35393,0.3308 -8,0 -2.72751,-0.3409 -5.27249,-1.659 -8,-2 -2.64607,-0.3307 -5.33333,0 -8,0 -5.33333,0 -10.66667,0 -16,0 -2.66667,0 -5.35393,0.3308 -8,0 -2.72751,-0.3409 -5.27889,-1.6112 -8,-2 -1.9799,-0.2828 -4,0 -6,0 -2.66667,0 -5.33333,0 -8,0 -2.66667,0 -5.36013,-0.3771 -8,0 -2.087,0.2982 -3.913,1.7019 -6,2 -2.63987,0.3772 -5.33333,0 -8,0 -2,0 -4,0 -6,0 -2,0 -4.02721,-0.3288 -6,0 -2.0795,0.3466 -3.9205,1.6534 -6,2 -3.94558,0.6576 -8.05442,-0.6576 -12,0 -2.0795,0.3466 -3.93275,1.5866 -6,2 -3.70353,0.7407 -10.29647,-0.7407 -14,0 -2.06725,0.4135 -3.93275,1.5866 -6,2 -1.30744,0.2615 -2.66667,0 -4,0 -2.66667,0 -5.33333,0 -8,0 -1.33333,0 -2.73509,-0.4216 -4,0 -0.89443,0.2982 -1.10557,1.7019 -2,2 -1.89737,0.6325 -4,0 -6,0 -1.42982,0 -10.97622,-0.3412 -12,0 -0.89443,0.2982 -1.15673,1.5784 -2,2 -0.69725,0.3487 -10.531836,0 -11.999996,0 -0.66667,0 -1.40371,-0.2981 -2,0 -0.84327,0.4217 -1.10557,1.7019 -2,2 -1.26491,0.4217 -2.66667,0 -4,0 -0.66667,0 -1.40371,-0.2981 -2,0 -0.84327,0.4217 -1.15673,1.5784 -2,2 -1.6,0.8 -4.4,-0.8 -6,0 -0.84327,0.4217 -1.15673,1.5784 -2,2 -0.59628,0.2981 -1.33333,0 -2,0 -0.66667,0 -1.33333,0 -2,0" id="path5090"/>
    <g id="g3550-2-5" transform="translate(248.43573,346.03998)">
      <path id="path3540-8-1" d="m 256,179.36218 c 1.22316,3.00625 1,5.88748 1,9 0,0.33334 -0.2357,0.7643 0,1 0.0322,0.0322 2.75747,0 3,0 2.66667,0 5.33333,0 8,0 0.45036,0 2.69567,0.15217 3,0 0.42164,-0.21082 0.57836,-0.78918 1,-1 0.26294,-0.13147 3.47708,0 4,0 3.33333,0 6.66667,0 10,0 9.66667,0 19.33333,0 29,0 2,0 4,0 6,0 0.33333,0 0.66667,0 1,0 0.33333,0 0.70186,-0.14907 1,0 0.42164,0.21082 0.57836,0.78918 1,1 0.29814,0.14907 0.66667,0 1,0 1.66667,0 3.33333,0 5,0 0.33333,0 0.66667,0 1,0 0.33333,0 0.70186,-0.14907 1,0 0.42164,0.21082 0.57836,0.78918 1,1 0.26294,0.13147 3.47708,0 4,0 2.66667,0 5.33333,0 8,0 1.66667,0 3.33333,0 5,0 0.33333,0 0.7643,0.2357 1,0 0.2357,-0.2357 0,-0.66666 0,-1 0,-0.33333 0.14907,-0.70185 0,-1 -0.21082,-0.42163 -0.78918,-0.57836 -1,-1 -0.12928,-0.25855 0,-5.2912 0,-6 0,-2.33333 0,-4.66666 0,-7 0,-0.33333 0.2357,-0.7643 0,-1 -0.2357,-0.2357 -0.66667,0 -1,0 -1.66667,0 -3.33333,0 -5,0 -0.33333,0 -0.66667,0 -1,0 -0.33333,0 -0.7643,-0.2357 -1,0 -0.2357,0.2357 0.2357,0.7643 0,1 -0.0322,0.0322 -2.75747,0 -3,0 -5.33333,0 -10.66667,0 -16,0 -3.66667,0 -7.33333,0 -11,0 -0.52292,0 -3.73706,-0.13147 -4,0 -0.42164,0.21082 -0.57836,0.78918 -1,1 -0.26294,0.13147 -3.47708,0 -4,0 -3,0 -6,0 -9,0 -6.33333,0 -12.66667,0 -19,0 -2,0 -4,0 -6,0 -0.33333,0 -0.66667,0 -1,0 -0.33333,0 -0.70186,0.14907 -1,0 -0.42164,-0.21082 -0.57836,-0.78918 -1,-1 -0.36163,-0.18081 -4.30446,0 -5,0 -0.36724,0 -3.95976,0.0402 -4,0 -0.2357,-0.2357 0.2357,-0.7643 0,-1 -0.2357,-0.2357 -0.66667,0 -1,0 -0.33333,0 -0.7643,-0.2357 -1,0 -0.2357,0.2357 -0.0548,0.6712 0,1 0.27942,1.67655 0.66667,3.33334 1,5 z" style="fill:none;stroke:#000000;stroke-width:1px;stroke-linecap:butt;stroke-linejoin:miter;stroke-opacity:1"/>
      <path id="path3542-0-9" d="m 255,172.36218 c 1.33333,-0.33333 3.66667,-2.33333 4,-1 0.33333,1.33334 -4.97183,1.97183 -4,1 1.2693,-1.26929 3.39445,-1.19722 5,-2 0.42164,-0.21082 0.57836,-0.78918 1,-1 0.59628,-0.29814 1.40372,0.29815 2,0 0.42164,-0.21082 0.57836,-0.78918 1,-1 0.29814,-0.14907 0.70186,0.14907 1,0 0.42164,-0.21082 0.57836,-0.78918 1,-1 0.29814,-0.14907 0.70186,0.14907 1,0 0.42164,-0.21082 0.57836,-0.78918 1,-1 0.39649,-0.19824 2.79556,0.20444 3,0 0.2357,-0.2357 -0.2357,-0.7643 0,-1 0.4714,-0.4714 1.5286,0.47141 2,0 0.2357,-0.2357 -0.2357,-0.7643 0,-1 0.4714,-0.4714 1.5286,0.47141 2,0 0.2357,-0.2357 -0.2357,-0.7643 0,-1 0.2357,-0.2357 0.70186,0.14907 1,0 0.42164,-0.21082 0.57836,-0.78918 1,-1 0.29814,-0.14907 0.7643,0.2357 1,0 0.2357,-0.2357 -0.2357,-0.7643 0,-1 0.4714,-0.4714 1.5286,0.47141 2,0 0.2357,-0.2357 -0.2357,-0.7643 0,-1 0.4714,-0.4714 1.5286,0.47141 2,0 1.33333,-1.33333 -1.66667,-1 1,-1 2.33333,0.66667 4.64575,1.41144 7,2 0.86922,0.21731 3.01122,0 4,0 2.33333,0 4.66667,0 7,0 0.69554,0 4.63837,0.18082 5,0 0.42164,-0.21082 0.55279,-0.85093 1,-1 0.56886,-0.18962 4.05816,0 5,0 3.33333,0 6.66667,0 10,0 0.52292,0 3.73706,0.13147 4,0 0.42164,-0.21082 0.57836,-0.78918 1,-1 0.11162,-0.0558 4.88838,-0.0558 5,0 0.42164,0.21082 0.57836,0.78918 1,1 0.30433,0.15217 2.54964,0 3,0 2,0 4,0 6,0" style="fill:none;stroke:#000000;stroke-width:1px;stroke-linecap:butt;stroke-linejoin:miter;stroke-opacity:1"/>
      <path id="path3544-1-8" d="m 337,162.36218 c 1.33333,1 2.57085,2.14251 4,3 0.28583,0.1715 0.70186,-0.14907 1,0 0.84327,0.42164 1.15673,1.57837 2,2 0.29814,0.14907 0.70186,-0.14907 1,0 0.42164,0.21082 0.57836,0.78918 1,1 0.29814,0.14907 0.7643,-0.2357 1,0 0.2357,0.2357 -0.2357,0.7643 0,1 0.2357,0.2357 0.70186,-0.14907 1,0 2.4714,1.2357 -0.34518,1 2,1" style="fill:none;stroke:#000000;stroke-width:1px;stroke-linecap:butt;stroke-linejoin:miter;stroke-opacity:1"/>
    </g>
    <text xml:space="preserve" style="font-size:10px;font-style:normal;font-variant:normal;font-weight:normal;font-stretch:normal;text-align:start;line-height:125%;letter-spacing:0px;word-spacing:0px;text-anchor:start;fill:#000000;fill-opacity:1;stroke:none;font-family:Univers Else;-inkscape-font-specification:Univers Else" x="514.85712" y="530.36218" id="text5641"><tspan id="tspan5643" x="514.85712" y="530.36218">in-house server</tspan></text>
    <path style="fill:none;stroke:#000000;stroke-width:1px;stroke-linecap:butt;stroke-linejoin:miter;stroke-opacity:1" d="m 547.85714,530.93361 0,109.28572" id="path5645"/>
    <path style="fill:none;stroke:#000000;stroke-width:1px;stroke-linecap:butt;stroke-linejoin:miter;stroke-opacity:1" d="m 506.71429,729.50504 0,-87.85714" id="path5683"/>
    <path style="fill:none;stroke:#000000;stroke-width:1px;stroke-linecap:butt;stroke-linejoin:miter;stroke-opacity:1" d="m 558.57143,779.50504 0,-139.28571" id="path5687"/>
    <rect style="color:#000000;fill:#ffffff;fill-opacity:1;fill-rule:evenodd;stroke:#000000;stroke-width:1;stroke-linecap:butt;stroke-linejoin:miter;stroke-miterlimit:4;stroke-opacity:1;stroke-dasharray:none;stroke-dashoffset:0;marker:none;visibility:visible;display:inline;overflow:visible;enable-background:accumulate" id="rect5649" width="14.285714" height="14.285714" x="436.42859" y="782.36218" ry="3.5714285"/>
    <rect style="color:#000000;fill:#ffffff;fill-opacity:1;fill-rule:evenodd;stroke:#000000;stroke-width:1;stroke-linecap:butt;stroke-linejoin:miter;stroke-miterlimit:4;stroke-opacity:1;stroke-dasharray:none;stroke-dashoffset:0;marker:none;visibility:visible;display:inline;overflow:visible;enable-background:accumulate" id="rect5649-8" width="14.285714" height="14.285714" x="499.57144" y="730.2193" ry="3.5714285"/>
    <rect style="color:#000000;fill:#ffffff;fill-opacity:1;fill-rule:evenodd;stroke:#000000;stroke-width:1;stroke-linecap:butt;stroke-linejoin:miter;stroke-miterlimit:4;stroke-opacity:1;stroke-dasharray:none;stroke-dashoffset:0;marker:none;visibility:visible;display:inline;overflow:visible;enable-background:accumulate" id="rect5649-4" width="14.285714" height="14.285714" x="552.14294" y="774.50507" ry="3.5714285"/>
    <path style="fill:none;stroke:#000000;stroke-width:1px;stroke-linecap:butt;stroke-linejoin:miter;stroke-opacity:1" d="m 643.57143,760.93361 0,-118.57143" id="path5691"/>
    <rect style="color:#000000;fill:#ffffff;fill-opacity:1;fill-rule:evenodd;stroke:#000000;stroke-width:1;stroke-linecap:butt;stroke-linejoin:miter;stroke-miterlimit:4;stroke-opacity:1;stroke-dasharray:none;stroke-dashoffset:0;marker:none;visibility:visible;display:inline;overflow:visible;enable-background:accumulate" id="rect5649-3" width="14.285714" height="14.285714" x="637.85718" y="755.2193" ry="3.5714285"/>
    <g id="g3897-4-2" transform="matrix(0.18372813,0.00234938,-0.00234938,0.18372813,385.81852,723.24073)">
      <path transform="translate(225,-23)" d="m 127,421.36218 c 0,19.32997 -15.67003,35 -35,35 -19.329966,0 -35,-15.67003 -35,-35 0,0 0,0 0,0" id="path3102-9-2" style="color:#000000;fill:none;stroke:#000000;stroke-width:1.25;stroke-linecap:butt;stroke-linejoin:miter;stroke-miterlimit:4;stroke-opacity:1;stroke-dasharray:none;stroke-dashoffset:0;marker:none;visibility:visible;display:inline;overflow:visible;enable-background:accumulate"/>
      <path transform="matrix(1.3633618,0,0,1.3633618,190.85306,-176.13277)" d="m 127,421.36218 c 0,19.32997 -15.67003,35 -35,35 -19.329966,0 -35,-15.67003 -35,-35 0,0 0,0 0,0" id="path3102-8-9-55" style="color:#000000;fill:none;stroke:#000000;stroke-width:0.87893069;stroke-linecap:butt;stroke-linejoin:miter;stroke-miterlimit:4;stroke-opacity:1;stroke-dasharray:none;stroke-dashoffset:0;marker:none;visibility:visible;display:inline;overflow:visible;enable-background:accumulate"/>
      <path transform="matrix(1.7512132,0,0,1.7512132,154.59592,-339.53283)" d="m 127,421.36218 c 0,19.32997 -15.67003,35 -35,35 -19.329966,0 -35,-15.67003 -35,-35 0,0 0,0 0,0" id="path3102-7-7-8" style="color:#000000;fill:none;stroke:#000000;stroke-width:0.71379089;stroke-linecap:butt;stroke-linejoin:miter;stroke-miterlimit:4;stroke-opacity:1;stroke-dasharray:none;stroke-dashoffset:0;marker:none;visibility:visible;display:inline;overflow:visible;enable-background:accumulate"/>
    </g>
    <g id="g3897-4-2-3" transform="matrix(0.18372813,0.00234938,-0.00234938,0.18372813,448.50345,674.15679)">
      <path transform="translate(225,-23)" d="m 127,421.36218 c 0,19.32997 -15.67003,35 -35,35 -19.329966,0 -35,-15.67003 -35,-35 0,0 0,0 0,0" id="path3102-9-2-5" style="color:#000000;fill:none;stroke:#000000;stroke-width:1.25;stroke-linecap:butt;stroke-linejoin:miter;stroke-miterlimit:4;stroke-opacity:1;stroke-dasharray:none;stroke-dashoffset:0;marker:none;visibility:visible;display:inline;overflow:visible;enable-background:accumulate"/>
      <path transform="matrix(1.3633618,0,0,1.3633618,190.85306,-176.13277)" d="m 127,421.36218 c 0,19.32997 -15.67003,35 -35,35 -19.329966,0 -35,-15.67003 -35,-35 0,0 0,0 0,0" id="path3102-8-9-55-9" style="color:#000000;fill:none;stroke:#000000;stroke-width:0.87893069;stroke-linecap:butt;stroke-linejoin:miter;stroke-miterlimit:4;stroke-opacity:1;stroke-dasharray:none;stroke-dashoffset:0;marker:none;visibility:visible;display:inline;overflow:visible;enable-background:accumulate"/>
      <path transform="matrix(1.7512132,0,0,1.7512132,154.59592,-339.53283)" d="m 127,421.36218 c 0,19.32997 -15.67003,35 -35,35 -19.329966,0 -35,-15.67003 -35,-35 0,0 0,0 0,0" id="path3102-7-7-8-0" style="color:#000000;fill:none;stroke:#000000;stroke-width:0.71379089;stroke-linecap:butt;stroke-linejoin:miter;stroke-miterlimit:4;stroke-opacity:1;stroke-dasharray:none;stroke-dashoffset:0;marker:none;visibility:visible;display:inline;overflow:visible;enable-background:accumulate"/>
    </g>
    <g id="g3897-4-2-4" transform="matrix(0.18372813,0.00234938,-0.00234938,0.18372813,502.93202,717.15679)">
      <path transform="translate(225,-23)" d="m 127,421.36218 c 0,19.32997 -15.67003,35 -35,35 -19.329966,0 -35,-15.67003 -35,-35 0,0 0,0 0,0" id="path3102-9-2-2" style="color:#000000;fill:none;stroke:#000000;stroke-width:1.25;stroke-linecap:butt;stroke-linejoin:miter;stroke-miterlimit:4;stroke-opacity:1;stroke-dasharray:none;stroke-dashoffset:0;marker:none;visibility:visible;display:inline;overflow:visible;enable-background:accumulate"/>
      <path transform="matrix(1.3633618,0,0,1.3633618,190.85306,-176.13277)" d="m 127,421.36218 c 0,19.32997 -15.67003,35 -35,35 -19.329966,0 -35,-15.67003 -35,-35 0,0 0,0 0,0" id="path3102-8-9-55-2" style="color:#000000;fill:none;stroke:#000000;stroke-width:0.87893069;stroke-linecap:butt;stroke-linejoin:miter;stroke-miterlimit:4;stroke-opacity:1;stroke-dasharray:none;stroke-dashoffset:0;marker:none;visibility:visible;display:inline;overflow:visible;enable-background:accumulate"/>
      <path transform="matrix(1.7512132,0,0,1.7512132,154.59592,-339.53283)" d="m 127,421.36218 c 0,19.32997 -15.67003,35 -35,35 -19.329966,0 -35,-15.67003 -35,-35 0,0 0,0 0,0" id="path3102-7-7-8-1" style="color:#000000;fill:none;stroke:#000000;stroke-width:0.71379089;stroke-linecap:butt;stroke-linejoin:miter;stroke-miterlimit:4;stroke-opacity:1;stroke-dasharray:none;stroke-dashoffset:0;marker:none;visibility:visible;display:inline;overflow:visible;enable-background:accumulate"/>
    </g>
    <g id="g3897-4-2-6" transform="matrix(0.18372813,0.00234938,-0.00234938,0.18372813,588.64631,697.87108)">
      <path transform="translate(225,-23)" d="m 127,421.36218 c 0,19.32997 -15.67003,35 -35,35 -19.329966,0 -35,-15.67003 -35,-35 0,0 0,0 0,0" id="path3102-9-2-0" style="color:#000000;fill:none;stroke:#000000;stroke-width:1.25;stroke-linecap:butt;stroke-linejoin:miter;stroke-miterlimit:4;stroke-opacity:1;stroke-dasharray:none;stroke-dashoffset:0;marker:none;visibility:visible;display:inline;overflow:visible;enable-background:accumulate"/>
      <path transform="matrix(1.3633618,0,0,1.3633618,190.85306,-176.13277)" d="m 127,421.36218 c 0,19.32997 -15.67003,35 -35,35 -19.329966,0 -35,-15.67003 -35,-35 0,0 0,0 0,0" id="path3102-8-9-55-8" style="color:#000000;fill:none;stroke:#000000;stroke-width:0.87893069;stroke-linecap:butt;stroke-linejoin:miter;stroke-miterlimit:4;stroke-opacity:1;stroke-dasharray:none;stroke-dashoffset:0;marker:none;visibility:visible;display:inline;overflow:visible;enable-background:accumulate"/>
      <path transform="matrix(1.7512132,0,0,1.7512132,154.59592,-339.53283)" d="m 127,421.36218 c 0,19.32997 -15.67003,35 -35,35 -19.329966,0 -35,-15.67003 -35,-35 0,0 0,0 0,0" id="path3102-7-7-8-6" style="color:#000000;fill:none;stroke:#000000;stroke-width:0.71379089;stroke-linecap:butt;stroke-linejoin:miter;stroke-miterlimit:4;stroke-opacity:1;stroke-dasharray:none;stroke-dashoffset:0;marker:none;visibility:visible;display:inline;overflow:visible;enable-background:accumulate"/>
    </g>
    <text xml:space="preserve" style="font-size:10px;font-style:normal;font-variant:normal;font-weight:normal;font-stretch:normal;text-align:start;line-height:125%;letter-spacing:0px;word-spacing:0px;text-anchor:start;fill:#000000;fill-opacity:1;stroke:none;font-family:Univers Else;-inkscape-font-specification:Univers Else" x="411.42856" y="816.64789" id="text5788"><tspan id="tspan5790" x="411.42856" y="816.64789">192.168.100.1</tspan></text>
    <text xml:space="preserve" style="font-size:10px;font-style:normal;font-variant:normal;font-weight:normal;font-stretch:normal;text-align:start;line-height:125%;letter-spacing:0px;word-spacing:0px;text-anchor:start;fill:#000000;fill-opacity:1;stroke:none;font-family:Univers Else;-inkscape-font-specification:Univers Else" x="470.72702" y="769.6886" id="text5788-0"><tspan id="tspan5790-3" x="470.72702" y="769.6886">192.168.101.1</tspan></text>
    <text xml:space="preserve" style="font-size:10px;font-style:normal;font-variant:normal;font-weight:normal;font-stretch:normal;text-align:start;line-height:125%;letter-spacing:0px;word-spacing:0px;text-anchor:start;fill:#000000;fill-opacity:1;stroke:none;font-family:Univers Else;-inkscape-font-specification:Univers Else" x="524.29846" y="812.54572" id="text5788-8"><tspan id="tspan5790-6" x="524.29846" y="812.54572">192.168.102.1</tspan></text>
    <text xml:space="preserve" style="font-size:10px;font-style:normal;font-variant:normal;font-weight:normal;font-stretch:normal;text-align:start;line-height:125%;letter-spacing:0px;word-spacing:0px;text-anchor:start;fill:#000000;fill-opacity:1;stroke:none;font-family:Univers Else;-inkscape-font-specification:Univers Else" x="607.86987" y="793.26001" id="text5788-6"><tspan id="tspan5790-9" x="607.86987" y="793.26001">192.168.103.1</tspan></text>
    <text xml:space="preserve" style="font-size:10px;font-style:normal;font-variant:normal;font-weight:normal;font-stretch:normal;text-align:start;line-height:125%;letter-spacing:0px;word-spacing:0px;text-anchor:start;fill:#000000;fill-opacity:1;stroke:none;font-family:Univers Else;-inkscape-font-specification:Univers Else" x="75.275368" y="581.83148" id="text4273-2-6"><tspan id="tspan4275-3-4" x="75.275368" y="581.83148">192.168.102.105</tspan></text>
    <text xml:space="preserve" style="font-size:10px;font-style:normal;font-variant:normal;font-weight:normal;font-stretch:normal;text-align:start;line-height:125%;letter-spacing:0px;word-spacing:0px;text-anchor:start;fill:#000000;fill-opacity:1;stroke:none;font-family:Univers Else;-inkscape-font-specification:Univers Else" x="528.13251" y="860.40289" id="text4273-2-5"><tspan id="tspan4275-3-0" x="528.13251" y="860.40289">192.168.102.101</tspan></text>
    <path style="color:#000000;fill:none;fill-opacity:1;fill-rule:evenodd;stroke:#000000;stroke-width:1;stroke-linecap:butt;stroke-linejoin:miter;stroke-miterlimit:4;stroke-opacity:1;stroke-dasharray:1,4;stroke-dashoffset:0;marker:none;visibility:visible;display:inline;overflow:visible;enable-background:accumulate" id="path5873" d="m 490,857.00507 a 67.5,67.5 0 1 1 -135,0 67.5,67.5 0 1 1 135,0 z"/>
    <path transform="translate(158.21429,-8.2143125)" style="color:#000000;fill:none;stroke:#000000;stroke-width:1;stroke-linecap:butt;stroke-linejoin:miter;stroke-miterlimit:4;stroke-opacity:1;stroke-dasharray:1, 4;stroke-dashoffset:0;marker:none;visibility:visible;display:inline;overflow:visible;enable-background:accumulate" id="path5873-8" d="m 490,857.00507 a 67.5,67.5 0 1 1 -135,0 67.5,67.5 0 1 1 135,0 z"/>
    <path transform="translate(-123.92857,-111.78574)" style="color:#000000;fill:none;stroke:#000000;stroke-width:1;stroke-linecap:butt;stroke-linejoin:miter;stroke-miterlimit:4;stroke-opacity:1;stroke-dasharray:1, 4;stroke-dashoffset:0;marker:none;visibility:visible;display:inline;overflow:visible;enable-background:accumulate" id="path5873-7" d="m 490,857.00507 a 67.5,67.5 0 1 1 -135,0 67.5,67.5 0 1 1 135,0 z"/>
    <text xml:space="preserve" style="font-size:10px;font-style:normal;font-variant:normal;font-weight:normal;font-stretch:normal;text-align:start;line-height:125%;letter-spacing:0px;word-spacing:0px;text-anchor:start;fill:#000000;fill-opacity:1;stroke:none;font-family:Univers Else;-inkscape-font-specification:Univers Else" x="520.73364" y="491.72751" id="text6692"><tspan id="tspan6694" x="520.73364" y="491.72751">etherpad</tspan></text>
    <text xml:space="preserve" style="font-size:10px;font-style:normal;font-variant:normal;font-weight:normal;font-stretch:normal;text-align:start;line-height:125%;letter-spacing:0px;word-spacing:0px;text-anchor:start;fill:#000000;fill-opacity:1;stroke:none;font-family:Univers Else;-inkscape-font-specification:Univers Else" x="466.18539" y="501.82904" id="text6696"><tspan id="tspan6698" x="466.18539" y="501.82904">apache</tspan></text>
    <text xml:space="preserve" style="font-size:10px;font-style:normal;font-variant:normal;font-weight:normal;font-stretch:normal;text-align:start;line-height:125%;letter-spacing:0px;word-spacing:0px;text-anchor:start;fill:#000000;fill-opacity:1;stroke:none;font-family:Univers Else;-inkscape-font-specification:Univers Else" x="486.38846" y="482.13107" id="text6700"><tspan id="tspan6702" x="486.38846" y="482.13107">IRC</tspan></text>
    <text xml:space="preserve" style="font-size:10px;font-style:normal;font-variant:normal;font-weight:normal;font-stretch:normal;text-align:start;line-height:125%;letter-spacing:0px;word-spacing:0px;text-anchor:start;fill:#000000;fill-opacity:1;stroke:none;font-family:Univers Else;-inkscape-font-specification:Univers Else" x="588.91895" y="486.17169" id="text6704"><tspan id="tspan6706" x="588.91895" y="486.17169">files</tspan></text>
    <text xml:space="preserve" style="font-size:10px;font-style:normal;font-variant:normal;font-weight:normal;font-stretch:normal;text-align:start;line-height:125%;letter-spacing:0px;word-spacing:0px;text-anchor:start;fill:#000000;fill-opacity:1;stroke:none;font-family:Univers Else;-inkscape-font-specification:Univers Else" x="601.04077" y="499.80875" id="text6708"><tspan id="tspan6710" x="601.04077" y="499.80875">git</tspan></text>
    <text xml:space="preserve" style="font-size:10px;font-style:normal;font-variant:normal;font-weight:normal;font-stretch:normal;text-align:start;line-height:125%;letter-spacing:0px;word-spacing:0px;text-anchor:start;fill:#000000;fill-opacity:1;stroke:none;font-family:Univers Else;-inkscape-font-specification:Univers Else" x="607.60675" y="516.47626" id="text6712"><tspan id="tspan6714" x="607.60675" y="516.47626">ssh</tspan></text>
    <text xml:space="preserve" style="font-size:10px;font-style:normal;font-variant:normal;font-weight:normal;font-stretch:normal;text-align:start;line-height:125%;letter-spacing:0px;word-spacing:0px;text-anchor:start;fill:#000000;fill-opacity:1;stroke:none;font-family:Univers Else;-inkscape-font-specification:Univers Else" x="576.29199" y="712.44586" id="text7122"><tspan id="tspan7124" x="576.29199" y="712.44586">OpenWRT</tspan><tspan x="576.29199" y="724.94586" id="tspan7126">routers</tspan></text>
    <path style="fill:none;stroke:#000000;stroke-width:1px;stroke-linecap:butt;stroke-linejoin:miter;stroke-opacity:1" d="m 147.81151,64.409127 c 16.19161,-4.07555 30.74357,-12.853754 44.95808,-21.6131 14.21451,-8.759346 28.61101,-17.727268 44.68245,-22.253542 17.78825,-5.009786 36.75959,-4.291449 54.96191,-1.098412 18.20231,3.193036 35.88067,8.78717 53.75107,13.495506 25.8391,6.807858 52.46202,11.801966 79.15068,10.48985 28.31148,-1.3919 55.79393,-9.819497 83.91879,-13.350718 14.40957,-1.809195 29.09139,-2.320799 43.41185,0.09445 14.32045,2.415248 28.31346,7.874323 39.55332,17.070758 6.45823,5.284114 11.89296,11.683789 17.51867,17.846746 5.6257,6.162956 11.56306,12.191442 18.71899,16.483669 10.93322,6.557897 23.87456,8.606155 36.21004,11.827523 6.16774,1.610684 12.28853,3.556438 17.93634,6.512383 5.64781,2.95594 10.8325,6.97231 14.51445,12.17602 5.38296,7.60774 7.19953,17.17057 7.82375,26.46919 0.62422,9.29863 0.19896,18.69147 1.71248,27.8873 1.86608,11.3379 6.61092,21.9801 9.61101,33.07198 1.50004,5.54594 2.56735,11.24535 2.58708,16.99054 0.0197,5.74519 -1.04035,11.55528 -3.61549,16.69106 -2.40462,4.79569 -6.07342,8.89119 -10.29965,12.19571 -4.22622,3.30452 -9.00556,5.84589 -13.93728,7.9575 -9.86345,4.22323 -20.39595,6.78041 -30.11956,11.31634 -13.00756,6.06785 -24.1176,15.452 -35.57776,24.09377 -11.46017,8.64176 -23.80868,16.80238 -37.85118,19.77287 -12.38272,2.61939 -25.24568,1.0209 -37.71473,-1.15067 -12.46905,-2.17158 -24.9695,-4.91877 -37.62146,-4.57106 -12.38255,0.34031 -24.46158,3.63328 -36.5913,6.1459 -12.12972,2.51262 -24.76299,4.24822 -36.83765,1.48308 -9.27247,-2.12343 -17.72846,-6.79026 -26.10413,-11.29979 -8.37566,-4.50953 -16.97837,-8.97465 -26.34511,-10.63353 -10.93116,-1.93595 -22.15031,0.0795 -32.98095,2.51581 -10.83064,2.43627 -21.71959,5.31589 -32.81901,5.11317 -10.47695,-0.19135 -20.69538,-3.12618 -30.67858,-6.31032 -9.9832,-3.18415 -19.95982,-6.66013 -30.35327,-7.99402 -9.22524,-1.18397 -18.57089,-0.65255 -27.87173,-0.69022 -9.30083,-0.0377 -18.77827,-0.68533 -27.43838,-4.07789 -10.81845,-4.23807 -19.53167,-12.40203 -28.32789,-19.99324 -8.79622,-7.59121 -18.43191,-15.01062 -29.8431,-17.19805 -6.31461,-1.21046 -12.84886,-0.7346 -19.17155,0.43291 -6.32269,1.1675 -12.49647,3.01471 -18.73623,4.56551 -6.23975,1.5508 -12.60718,2.81214 -19.03663,2.7711 -6.429449,-0.041 -12.969535,-1.45339 -18.391775,-4.90865 -6.643454,-4.23346 -11.176244,-11.30197 -13.355494,-18.87221 -2.179249,-7.57024 -2.163584,-15.62913 -1.114916,-23.43669 2.097334,-15.61512 8.227364,-30.63129 8.748675,-46.378 0.341714,-10.32181 -1.746424,-20.55204 -2.627271,-30.84188 -0.880847,-10.28983 -0.43375,-21.13608 4.534516,-30.189972 3.579761,-6.523557 9.330097,-11.69961 15.826297,-15.328781 6.496199,-3.629171 13.727648,-5.784481 21.040598,-7.160061 14.62591,-2.751161 29.75879,-2.487137 44.19103,-6.119839" id="path3212"/>
  </g>
</svg>
